Comment,Designator,Footprint,LCSC
"100nF","C1,C4","Capacitor_SMD:C_0603_1608Metric","C14663"
"1nF","C2","Capacitor_SMD:C_0603_1608Metric","C1588"
"3pF","C9","Capacitor_SMD:C_0603_1608Metric","C46219"
"620","R1","Resistor_SMD:R_0603_1608Metric","C23220"
"2k","R2,R3","Resistor_SMD:R_0603_1608Metric","C125933"
"Si4735-D60-GMR","U1","_project:Si4735-D60-GM","C5363643"
"SG-3031CM 32.768K","X1","_project:3215 4-SMD","C2976104"