(footprint "3215 4-SMD" (version 20211014) (generator pcbnew)
  (layer "F.Cu")
  (tedit 0)
  (attr smd)
  (fp_text reference "REF**" (at 0 -6.5 unlocked) (layer "F.SilkS")
    (effects (font (size 1 1) (thickness 0.15)))
    (tstamp a32dba72-ec45-4a25-97d1-30f25bddbebb)
  )
  (fp_text value "3215 4-SMD" (at -0.5 -4.5 unlocked) (layer "F.Fab")
    (effects (font (size 1 1) (thickness 0.15)))
    (tstamp 3f2e8967-bcba-4447-9fcc-a290182f5de4)
  )
  (fp_text user "${REFERENCE}" (at 0 -6.5 unlocked) (layer "F.Fab")
    (effects (font (size 1 1) (thickness 0.15)))
    (tstamp a627ee97-d01b-471b-8e25-c93a98f3d49c)
  )
  (fp_line (start -0.8 1.15) (end -2 1.15) (layer "F.SilkS") (width 0.12) (tstamp 0a170c69-a7ac-4386-a207-3e4969fb5ba0))
  (fp_line (start -2 1.15) (end -2 0.2) (layer "F.SilkS") (width 0.12) (tstamp 40930a18-eba4-4ddc-987d-9a2e1d35f89a))
  (pad "1" smd rect (at -1.325 0.6) (size 1.05 0.8) (layers "F.Cu" "F.Paste" "F.Mask") (tstamp 5976df65-40a7-4950-968f-b5245d3983c9))
  (pad "2" smd rect (at 1.325 0.6) (size 1.05 0.8) (layers "F.Cu" "F.Paste" "F.Mask") (tstamp b78fa7b9-12a6-41fd-af95-3dc645fdd4c8))
  (pad "3" smd rect (at 1.325 -0.6) (size 1.05 0.8) (layers "F.Cu" "F.Paste" "F.Mask") (tstamp 11992ec6-99d6-4251-8c51-5dc1abfb94ac))
  (pad "4" smd rect (at -1.325 -0.6) (size 1.05 0.8) (layers "F.Cu" "F.Paste" "F.Mask") (tstamp c7f3e5f6-904e-4957-a918-57551de72ba5))
  (model "${KIPRJMOD}/package3d/3215.step"
    (offset (xyz 0 0 0))
    (scale (xyz 1 1 1))
    (rotate (xyz 0 0 0))
  )
)
