(footprint "conn_castellated_5_4_5_4" (version 20221018) (generator pcbnew)
  (layer "F.Cu")
  (attr through_hole)
  (fp_text reference "REF**" (at 0 -8.5 unlocked) (layer "F.SilkS")
      (effects (font (size 1 1) (thickness 0.15)))
    (tstamp 5c5d2fb9-ceb7-42b2-b3db-5fb87861d7e4)
  )
  (fp_text value "conn_castellated_5_4_5_4" (at 0 -7 unlocked) (layer "F.Fab")
      (effects (font (size 1 1) (thickness 0.15)))
    (tstamp ee332324-0f55-4035-b0e6-d010e3f600d2)
  )
  (fp_text user "${REFERENCE}" (at 0 -8.5 unlocked) (layer "F.Fab")
      (effects (font (size 1 1) (thickness 0.15)))
    (tstamp 73d8691e-c8a8-43d9-8df1-3a7d8d6bdb6a)
  )
  (fp_rect (start -5.5 -5.5) (end 5.5 5.5)
    (stroke (width 0.1) (type solid)) (fill none) (layer "F.Fab") (tstamp 6a391c01-f651-43d1-8030-0db3920866af))
  (pad "1" thru_hole circle (at -5.5 -4) (size 1.35 1.35) (drill 0.8) (layers "*.Cu" "*.Mask") (tstamp cf8c1608-38b2-4857-a726-55dc1af58a70))
  (pad "2" thru_hole circle (at -5.5 -2) (size 1.35 1.35) (drill 0.8) (layers "*.Cu" "*.Mask") (tstamp 6e5c0c7c-3769-4555-8aff-94f84346e1be))
  (pad "3" thru_hole circle (at -5.5 0) (size 1.35 1.35) (drill 0.8) (layers "*.Cu" "*.Mask") (tstamp 7fdf5063-199d-43fc-9351-b4ea530379fc))
  (pad "4" thru_hole circle (at -5.5 2) (size 1.35 1.35) (drill 0.8) (layers "*.Cu" "*.Mask") (tstamp effc6b73-a67c-4b0b-9b85-f0c99350f6ee))
  (pad "5" thru_hole circle (at -5.5 4) (size 1.35 1.35) (drill 0.8) (layers "*.Cu" "*.Mask") (tstamp 9a9e45d4-26ea-4f13-a272-8cf7f322f972))
  (pad "6" thru_hole circle (at -3 5.5) (size 1.35 1.35) (drill 0.8) (layers "*.Cu" "*.Mask") (tstamp 8e20c4a7-a09e-40de-ae49-35cdb6820d17))
  (pad "7" thru_hole circle (at -1 5.5) (size 1.35 1.35) (drill 0.8) (layers "*.Cu" "*.Mask") (tstamp 6f9710b4-8112-4805-b9e9-67021ff25f09))
  (pad "8" thru_hole circle (at 1 5.5) (size 1.35 1.35) (drill 0.8) (layers "*.Cu" "*.Mask") (tstamp 0cadadcc-12c3-462b-a14e-f9bc31c9beac))
  (pad "9" thru_hole circle (at 3 5.5) (size 1.35 1.35) (drill 0.8) (layers "*.Cu" "*.Mask") (tstamp e1722735-6ebc-4533-aaad-44eecb91a1d6))
  (pad "10" thru_hole circle (at 5.5 4) (size 1.35 1.35) (drill 0.8) (layers "*.Cu" "*.Mask") (tstamp 36fa6e17-d53f-447f-b21f-5a5c4c37ac32))
  (pad "11" thru_hole circle (at 5.5 2) (size 1.35 1.35) (drill 0.8) (layers "*.Cu" "*.Mask") (tstamp 14f7e82d-dd57-46e3-885d-1d05deb3f698))
  (pad "12" thru_hole circle (at 5.5 0) (size 1.35 1.35) (drill 0.8) (layers "*.Cu" "*.Mask") (tstamp cf4ae9a1-1786-4653-b996-9949f14d531a))
  (pad "13" thru_hole circle (at 5.5 -2) (size 1.35 1.35) (drill 0.8) (layers "*.Cu" "*.Mask") (tstamp ee0df18c-e30d-4f3c-aba6-72fc7b750162))
  (pad "14" thru_hole circle (at 5.5 -4) (size 1.35 1.35) (drill 0.8) (layers "*.Cu" "*.Mask") (tstamp f3c38df6-ded0-44df-85cf-52235c8905a9))
  (pad "15" thru_hole circle (at 3 -5.5) (size 1.35 1.35) (drill 0.8) (layers "*.Cu" "*.Mask") (tstamp d4ef8689-5acc-4a83-b49d-88afeb24e86a))
  (pad "16" thru_hole circle (at 1 -5.5) (size 1.35 1.35) (drill 0.8) (layers "*.Cu" "*.Mask") (tstamp 1db6b41a-9cb8-4b30-8ea8-844bc65514b6))
  (pad "17" thru_hole circle (at -1 -5.5) (size 1.35 1.35) (drill 0.8) (layers "*.Cu" "*.Mask") (tstamp 0c8c9d8a-f8b8-4dfb-9d7c-7485e3cd94db))
  (pad "18" thru_hole circle (at -3 -5.5) (size 1.35 1.35) (drill 0.8) (layers "*.Cu" "*.Mask") (tstamp 6458ab14-be0e-4de1-8a51-77234a0a3ac0))
)
