(footprint "Si473x-D60-GM" (version 20211014) (generator pcbnew)
  (layer "F.Cu")
  (tedit 5EF22017)
  (attr through_hole)
  (fp_text reference "REF**" (at -3.188002 -2.259998) (layer "F.SilkS")
    (effects (font (size 1 1) (thickness 0.15)) (justify left))
    (tstamp 615d1c9d-a9d3-41e2-9523-1643d1b19533)
  )
  (fp_text value "Val**" (at 0 0) (layer "F.SilkS")
    (effects (font (size 1.27 1.27) (thickness 0.15)))
    (tstamp 74d4b0d4-e85e-456c-89b9-9bda58971f5d)
  )
  (fp_circle (center -2.063001 -1.264999) (end -1.938 -1.264999) (layer "F.SilkS") (width 0.249999) (fill none) (tstamp 82e71789-a321-4e00-bde3-8b94de0dc711))
  (fp_line (start 1.685001 -1.684997) (end 1.685001 -1.684997) (layer "F.CrtYd") (width 0.15) (tstamp 110d92d2-5771-4477-9e70-207aa2557040))
  (fp_line (start -1.684999 1.685003) (end 1.685001 1.685003) (layer "F.CrtYd") (width 0.15) (tstamp 2ff6874c-5ab6-4e1f-bf3a-16068735a226))
  (fp_line (start 1.685001 -1.684997) (end -1.684999 -1.684997) (layer "F.CrtYd") (width 0.15) (tstamp 957f7371-44b2-43bc-a919-bc9b1ea3d7f4))
  (fp_line (start -1.684999 -1.684997) (end -1.684999 1.685003) (layer "F.CrtYd") (width 0.15) (tstamp ba28b03a-1dad-42aa-90b2-e1a9a5cb95c1))
  (fp_line (start 1.685001 1.685003) (end 1.685001 -1.684997) (layer "F.CrtYd") (width 0.15) (tstamp d9fae5cb-a070-4818-be5f-09c332e2c126))
  (fp_line (start 1.5 1.5) (end 1.5 -1.5) (layer "F.Fab") (width 0.1) (tstamp 5accfa30-1871-4821-a523-7a9d60bef040))
  (fp_line (start -1.5 1.5) (end 1.5 1.5) (layer "F.Fab") (width 0.1) (tstamp 64076669-d2aa-49fa-9644-9291f5d8c276))
  (fp_line (start -1.5 -1.5) (end 1.5 -1.5) (layer "F.Fab") (width 0.1) (tstamp a8db21bb-7b9e-48b7-bf30-46fe3448c88b))
  (fp_line (start -1.5 1.5) (end -1.5 -1.5) (layer "F.Fab") (width 0.1) (tstamp a9f872cc-473a-4e1d-9acb-99c6010a7888))
  (fp_circle (center -0.599999 -0.599999) (end -0.1 -0.599999) (layer "F.Fab") (width 0.1) (fill none) (tstamp 3a1f02ae-4ffd-48b9-8d1a-bee6ab76a059))
  (pad "1" smd rect (at -1.264999 -1.264999 270) (size 0.339999 0.339999) (layers "F.Cu" "F.Paste" "F.Mask") (tstamp 5cff2208-ac10-4c29-a3e8-e6c88c1983c9))
  (pad "2" smd rect (at -1.354999 -0.749999 270) (size 0.279999 0.609999) (layers "F.Cu" "F.Paste" "F.Mask") (tstamp 5b7ea9e2-e780-4472-b465-65ee916f2cd3))
  (pad "3" smd rect (at -1.354999 -0.249999 270) (size 0.279999 0.609999) (layers "F.Cu" "F.Paste" "F.Mask") (tstamp 1405cbcc-d990-4f97-b7ec-41670a6d11eb))
  (pad "4" smd rect (at -1.354999 0.249999 270) (size 0.279999 0.609999) (layers "F.Cu" "F.Paste" "F.Mask") (tstamp 0235c44b-0364-424b-ab2d-09e4268a3477))
  (pad "5" smd rect (at -1.354999 0.750001 270) (size 0.279999 0.609999) (layers "F.Cu" "F.Paste" "F.Mask") (tstamp eb95936d-1fb2-4394-9738-5ea559abaa34))
  (pad "6" smd rect (at -1.264999 1.264999 270) (size 0.339999 0.339999) (layers "F.Cu" "F.Paste" "F.Mask") (tstamp 0ed42fa2-8cf6-46b6-b90a-c09d481184ea))
  (pad "7" smd rect (at -0.749999 1.355001) (size 0.279999 0.609999) (layers "F.Cu" "F.Paste" "F.Mask") (tstamp 6d0cb54c-98e1-4b25-aee4-0bfe4564b148))
  (pad "8" smd rect (at -0.249999 1.355001) (size 0.279999 0.609999) (layers "F.Cu" "F.Paste" "F.Mask") (tstamp ddd025c4-0591-454c-8b07-5d0f13192632))
  (pad "9" smd rect (at 0.249999 1.355001) (size 0.279999 0.609999) (layers "F.Cu" "F.Paste" "F.Mask") (tstamp 7a8c8974-9a8c-4cce-bac6-c5fee98dd815))
  (pad "10" smd rect (at 0.750001 1.355001) (size 0.279999 0.609999) (layers "F.Cu" "F.Paste" "F.Mask") (tstamp ca220ad6-f4e4-49e8-920c-83aa01952b02))
  (pad "11" smd rect (at 1.264999 1.264999 270) (size 0.339999 0.339999) (layers "F.Cu" "F.Paste" "F.Mask") (tstamp 3e45604b-6ac7-4004-af14-e20575cb27ba))
  (pad "12" smd rect (at 1.354999 0.750001 270) (size 0.279999 0.609999) (layers "F.Cu" "F.Paste" "F.Mask") (tstamp 736fe782-0ae1-47fa-bf9b-98e7b980fe52))
  (pad "13" smd rect (at 1.354999 0.249999 270) (size 0.279999 0.609999) (layers "F.Cu" "F.Paste" "F.Mask") (tstamp 0ba70dcb-40fa-4060-9fb1-227603486be1))
  (pad "14" smd rect (at 1.354999 -0.249999 270) (size 0.279999 0.609999) (layers "F.Cu" "F.Paste" "F.Mask") (tstamp c32f7d06-00f7-4e0c-a207-f4c308235f87))
  (pad "15" smd rect (at 1.354999 -0.749999 270) (size 0.279999 0.609999) (layers "F.Cu" "F.Paste" "F.Mask") (tstamp 28fb77f6-75b5-422d-9f98-5323a21e86e9))
  (pad "16" smd rect (at 1.264999 -1.264999 270) (size 0.339999 0.339999) (layers "F.Cu" "F.Paste" "F.Mask") (tstamp ec7aaa2f-976e-4a51-b7dc-ec4d66e71a6f))
  (pad "17" smd rect (at 0.750001 -1.355001) (size 0.279999 0.609999) (layers "F.Cu" "F.Paste" "F.Mask") (tstamp eab33623-fe5d-46a8-842d-e77c61145ae2))
  (pad "18" smd rect (at 0.249999 -1.355001) (size 0.279999 0.609999) (layers "F.Cu" "F.Paste" "F.Mask") (tstamp 465f9891-f687-4691-8b3b-eeaad93b4c4d))
  (pad "19" smd rect (at -0.249999 -1.355001) (size 0.279999 0.609999) (layers "F.Cu" "F.Paste" "F.Mask") (tstamp eec1cf45-b9dd-43b1-add9-287861f7307f))
  (pad "20" smd rect (at -0.749999 -1.355001) (size 0.279999 0.609999) (layers "F.Cu" "F.Paste" "F.Mask") (tstamp ddc3f19b-ecdf-4882-86a5-36dcfa722f01))
  (pad "21" smd rect (at 0.000001 0.000001) (size 1.699999 1.699999) (layers "F.Cu" "F.Paste" "F.Mask") (tstamp 0986b131-2038-4e91-93db-19d3221f003e))
  (model "${KIPRJMOD}/package3d/Si473x-D60-GM.step"
    (offset (xyz 0 0 0))
    (scale (xyz 1 1 1))
    (rotate (xyz 0 0 0))
  )
)
