(kicad_sch (version 20230121) (generator eeschema)

  (uuid 360a7ce5-730d-4a2d-a6d9-e180bbb2b2c0)

  (paper "A4")

  (lib_symbols
    (symbol "Connector_Generic:Conn_01x09" (pin_names (offset 1.016) hide) (in_bom yes) (on_board yes)
      (property "Reference" "J" (at 0 12.7 0)
        (effects (font (size 1.27 1.27)))
      )
      (property "Value" "Conn_01x09" (at 0 -12.7 0)
        (effects (font (size 1.27 1.27)))
      )
      (property "Footprint" "" (at 0 0 0)
        (effects (font (size 1.27 1.27)) hide)
      )
      (property "Datasheet" "~" (at 0 0 0)
        (effects (font (size 1.27 1.27)) hide)
      )
      (property "ki_keywords" "connector" (at 0 0 0)
        (effects (font (size 1.27 1.27)) hide)
      )
      (property "ki_description" "Generic connector, single row, 01x09, script generated (kicad-library-utils/schlib/autogen/connector/)" (at 0 0 0)
        (effects (font (size 1.27 1.27)) hide)
      )
      (property "ki_fp_filters" "Connector*:*_1x??_*" (at 0 0 0)
        (effects (font (size 1.27 1.27)) hide)
      )
      (symbol "Conn_01x09_1_1"
        (rectangle (start -1.27 -10.033) (end 0 -10.287)
          (stroke (width 0.1524) (type default))
          (fill (type none))
        )
        (rectangle (start -1.27 -7.493) (end 0 -7.747)
          (stroke (width 0.1524) (type default))
          (fill (type none))
        )
        (rectangle (start -1.27 -4.953) (end 0 -5.207)
          (stroke (width 0.1524) (type default))
          (fill (type none))
        )
        (rectangle (start -1.27 -2.413) (end 0 -2.667)
          (stroke (width 0.1524) (type default))
          (fill (type none))
        )
        (rectangle (start -1.27 0.127) (end 0 -0.127)
          (stroke (width 0.1524) (type default))
          (fill (type none))
        )
        (rectangle (start -1.27 2.667) (end 0 2.413)
          (stroke (width 0.1524) (type default))
          (fill (type none))
        )
        (rectangle (start -1.27 5.207) (end 0 4.953)
          (stroke (width 0.1524) (type default))
          (fill (type none))
        )
        (rectangle (start -1.27 7.747) (end 0 7.493)
          (stroke (width 0.1524) (type default))
          (fill (type none))
        )
        (rectangle (start -1.27 10.287) (end 0 10.033)
          (stroke (width 0.1524) (type default))
          (fill (type none))
        )
        (rectangle (start -1.27 11.43) (end 1.27 -11.43)
          (stroke (width 0.254) (type default))
          (fill (type background))
        )
        (pin passive line (at -5.08 10.16 0) (length 3.81)
          (name "Pin_1" (effects (font (size 1.27 1.27))))
          (number "1" (effects (font (size 1.27 1.27))))
        )
        (pin passive line (at -5.08 7.62 0) (length 3.81)
          (name "Pin_2" (effects (font (size 1.27 1.27))))
          (number "2" (effects (font (size 1.27 1.27))))
        )
        (pin passive line (at -5.08 5.08 0) (length 3.81)
          (name "Pin_3" (effects (font (size 1.27 1.27))))
          (number "3" (effects (font (size 1.27 1.27))))
        )
        (pin passive line (at -5.08 2.54 0) (length 3.81)
          (name "Pin_4" (effects (font (size 1.27 1.27))))
          (number "4" (effects (font (size 1.27 1.27))))
        )
        (pin passive line (at -5.08 0 0) (length 3.81)
          (name "Pin_5" (effects (font (size 1.27 1.27))))
          (number "5" (effects (font (size 1.27 1.27))))
        )
        (pin passive line (at -5.08 -2.54 0) (length 3.81)
          (name "Pin_6" (effects (font (size 1.27 1.27))))
          (number "6" (effects (font (size 1.27 1.27))))
        )
        (pin passive line (at -5.08 -5.08 0) (length 3.81)
          (name "Pin_7" (effects (font (size 1.27 1.27))))
          (number "7" (effects (font (size 1.27 1.27))))
        )
        (pin passive line (at -5.08 -7.62 0) (length 3.81)
          (name "Pin_8" (effects (font (size 1.27 1.27))))
          (number "8" (effects (font (size 1.27 1.27))))
        )
        (pin passive line (at -5.08 -10.16 0) (length 3.81)
          (name "Pin_9" (effects (font (size 1.27 1.27))))
          (number "9" (effects (font (size 1.27 1.27))))
        )
      )
    )
    (symbol "_symbol:Si473x-i2s-module" (in_bom yes) (on_board yes)
      (property "Reference" "U" (at 0 35.56 0)
        (effects (font (size 1.27 1.27)))
      )
      (property "Value" "Si473x-i2s-module" (at 0 33.02 0)
        (effects (font (size 1.27 1.27)))
      )
      (property "Footprint" "" (at 0 0 0)
        (effects (font (size 1.27 1.27)) hide)
      )
      (property "Datasheet" "" (at 0 0 0)
        (effects (font (size 1.27 1.27)) hide)
      )
      (symbol "Si473x-i2s-module_0_1"
        (rectangle (start -17.78 17.78) (end 17.78 -20.32)
          (stroke (width 0) (type default))
          (fill (type background))
        )
      )
      (symbol "Si473x-i2s-module_1_1"
        (pin bidirectional line (at -20.32 10.16 0) (length 2.54)
          (name "SDIO" (effects (font (size 1.27 1.27))))
          (number "1" (effects (font (size 1.27 1.27))))
        )
        (pin power_in line (at 20.32 -10.16 180) (length 2.54)
          (name "GND" (effects (font (size 1.27 1.27))))
          (number "10" (effects (font (size 1.27 1.27))))
        )
        (pin input line (at 20.32 -5.08 180) (length 2.54)
          (name "ROUT/DOUT" (effects (font (size 1.27 1.27))))
          (number "11" (effects (font (size 1.27 1.27))))
        )
        (pin bidirectional line (at 20.32 0 180) (length 2.54)
          (name "LOUT/DFS" (effects (font (size 1.27 1.27))))
          (number "12" (effects (font (size 1.27 1.27))))
        )
        (pin output line (at 20.32 5.08 180) (length 2.54)
          (name "DOUT" (effects (font (size 1.27 1.27))))
          (number "13" (effects (font (size 1.27 1.27))))
        )
        (pin input line (at 20.32 10.16 180) (length 2.54)
          (name "FMI" (effects (font (size 1.27 1.27))))
          (number "14" (effects (font (size 1.27 1.27))))
        )
        (pin input line (at 7.62 20.32 270) (length 2.54)
          (name "DFS" (effects (font (size 1.27 1.27))))
          (number "15" (effects (font (size 1.27 1.27))))
        )
        (pin bidirectional line (at 2.54 20.32 270) (length 2.54)
          (name "GPO3/DCLK" (effects (font (size 1.27 1.27))))
          (number "16" (effects (font (size 1.27 1.27))))
        )
        (pin unspecified line (at -2.54 20.32 270) (length 2.54)
          (name "GPO2/~{INT}" (effects (font (size 1.27 1.27))))
          (number "17" (effects (font (size 1.27 1.27))))
        )
        (pin unspecified line (at -7.62 20.32 270) (length 2.54)
          (name "GPO1" (effects (font (size 1.27 1.27))))
          (number "18" (effects (font (size 1.27 1.27))))
        )
        (pin input line (at -20.32 5.08 0) (length 2.54)
          (name "SCLK" (effects (font (size 1.27 1.27))))
          (number "2" (effects (font (size 1.27 1.27))))
        )
        (pin power_in line (at -20.32 0 0) (length 2.54)
          (name "RFGND" (effects (font (size 1.27 1.27))))
          (number "3" (effects (font (size 1.27 1.27))))
        )
        (pin input line (at -20.32 -5.08 0) (length 2.54)
          (name "AMI" (effects (font (size 1.27 1.27))))
          (number "4" (effects (font (size 1.27 1.27))))
        )
        (pin power_in line (at -20.32 -10.16 0) (length 2.54)
          (name "VD" (effects (font (size 1.27 1.27))))
          (number "5" (effects (font (size 1.27 1.27))))
        )
        (pin input line (at -7.62 -22.86 90) (length 2.54)
          (name "~{RST}" (effects (font (size 1.27 1.27))))
          (number "6" (effects (font (size 1.27 1.27))))
        )
        (pin input line (at -2.54 -22.86 90) (length 2.54)
          (name "~{SEN}" (effects (font (size 1.27 1.27))))
          (number "7" (effects (font (size 1.27 1.27))))
        )
        (pin passive line (at 2.54 -22.86 90) (length 2.54)
          (name "NC" (effects (font (size 1.27 1.27))))
          (number "8" (effects (font (size 1.27 1.27))))
        )
        (pin power_in line (at 7.62 -22.86 90) (length 2.54)
          (name "VA" (effects (font (size 1.27 1.27))))
          (number "9" (effects (font (size 1.27 1.27))))
        )
      )
    )
  )


  (wire (pts (xy 172.72 111.76) (xy 185.42 111.76))
    (stroke (width 0) (type default))
    (uuid 002d3ef9-35dc-472c-87be-7a42897861bc)
  )
  (wire (pts (xy 132.08 106.68) (xy 124.46 106.68))
    (stroke (width 0) (type default))
    (uuid 02ebc3a4-b662-426f-89e7-3251e83ac25a)
  )
  (wire (pts (xy 124.46 99.06) (xy 111.76 99.06))
    (stroke (width 0) (type default))
    (uuid 10b8eada-6ce0-4d7a-a648-8a2b5a82adb7)
  )
  (wire (pts (xy 190.5 76.2) (xy 154.94 76.2))
    (stroke (width 0) (type default))
    (uuid 124278a2-f78d-49ac-93e4-f48f604b6b1c)
  )
  (wire (pts (xy 154.94 76.2) (xy 154.94 81.28))
    (stroke (width 0) (type default))
    (uuid 16e7235f-1bd8-452e-b400-db9c6b4218cd)
  )
  (wire (pts (xy 160.02 127) (xy 187.96 127))
    (stroke (width 0) (type default))
    (uuid 18067408-22bd-4f3c-a502-720104a037b5)
  )
  (wire (pts (xy 111.76 106.68) (xy 121.92 106.68))
    (stroke (width 0) (type default))
    (uuid 182be5c3-56e3-40c4-94de-f19005b5f4f4)
  )
  (wire (pts (xy 185.42 96.52) (xy 185.42 91.44))
    (stroke (width 0) (type default))
    (uuid 1b9185aa-4f0d-4a86-ad30-4f459dce6f94)
  )
  (wire (pts (xy 154.94 129.54) (xy 154.94 124.46))
    (stroke (width 0) (type default))
    (uuid 24ce8ec2-302c-4721-bde6-70ddbd84f32b)
  )
  (wire (pts (xy 182.88 99.06) (xy 198.12 99.06))
    (stroke (width 0) (type default))
    (uuid 28b127dc-d97c-4ede-9bc9-c32b02b6632f)
  )
  (wire (pts (xy 144.78 81.28) (xy 144.78 78.74))
    (stroke (width 0) (type default))
    (uuid 2b6ac17d-68b9-4576-805b-d845fb56ee56)
  )
  (wire (pts (xy 149.86 81.28) (xy 149.86 76.2))
    (stroke (width 0) (type default))
    (uuid 2bc0d336-48d0-40a8-9076-b7516aec3635)
  )
  (wire (pts (xy 160.02 78.74) (xy 187.96 78.74))
    (stroke (width 0) (type default))
    (uuid 2c143090-03bd-4149-831a-9efbf9deccf0)
  )
  (wire (pts (xy 119.38 127) (xy 119.38 109.22))
    (stroke (width 0) (type default))
    (uuid 34be8d4f-a387-4876-8fb2-738378e5c8fe)
  )
  (wire (pts (xy 187.96 127) (xy 187.96 109.22))
    (stroke (width 0) (type default))
    (uuid 3cb1743e-85c0-467a-961c-febf22cf5418)
  )
  (wire (pts (xy 149.86 124.46) (xy 149.86 129.54))
    (stroke (width 0) (type default))
    (uuid 42a03901-c187-4356-89be-550151aad12b)
  )
  (wire (pts (xy 116.84 111.76) (xy 111.76 111.76))
    (stroke (width 0) (type default))
    (uuid 4a023653-48b0-4436-ac54-59541ea5ee8f)
  )
  (wire (pts (xy 144.78 124.46) (xy 144.78 127))
    (stroke (width 0) (type default))
    (uuid 4b9aa198-9e37-4bb8-9fc7-5aafce7b8e5b)
  )
  (wire (pts (xy 198.12 96.52) (xy 185.42 96.52))
    (stroke (width 0) (type default))
    (uuid 4c19cd31-3fc8-416f-8279-d079d4bbb937)
  )
  (wire (pts (xy 198.12 111.76) (xy 190.5 111.76))
    (stroke (width 0) (type default))
    (uuid 4c79ae86-20d9-4e74-9a20-83758e238bef)
  )
  (wire (pts (xy 160.02 81.28) (xy 160.02 78.74))
    (stroke (width 0) (type default))
    (uuid 4eed062e-4ac8-49b2-bc08-d5c2fe04f9f3)
  )
  (wire (pts (xy 187.96 93.98) (xy 198.12 93.98))
    (stroke (width 0) (type default))
    (uuid 58d86941-89e2-41b9-9f1e-ec5ef9cb9599)
  )
  (wire (pts (xy 160.02 124.46) (xy 160.02 127))
    (stroke (width 0) (type default))
    (uuid 609f65c8-91ac-4713-b5c8-14900b6c465b)
  )
  (wire (pts (xy 185.42 111.76) (xy 185.42 106.68))
    (stroke (width 0) (type default))
    (uuid 6102ecb9-ea30-4076-b3ec-b367f1ddfc88)
  )
  (wire (pts (xy 111.76 91.44) (xy 116.84 91.44))
    (stroke (width 0) (type default))
    (uuid 652bb982-8082-40ac-9a16-6a3915813bc5)
  )
  (wire (pts (xy 190.5 111.76) (xy 190.5 129.54))
    (stroke (width 0) (type default))
    (uuid 6b13ebfa-88cd-499f-b782-706a9d5f7e2a)
  )
  (wire (pts (xy 172.72 101.6) (xy 198.12 101.6))
    (stroke (width 0) (type default))
    (uuid 6c0f6fd3-3401-408b-87b0-28d2162f38b5)
  )
  (wire (pts (xy 121.92 96.52) (xy 111.76 96.52))
    (stroke (width 0) (type default))
    (uuid 703198db-e3e5-455a-9f92-7b3a1e3cfd0a)
  )
  (wire (pts (xy 111.76 104.14) (xy 124.46 104.14))
    (stroke (width 0) (type default))
    (uuid 731bc54c-ef66-48a3-9e05-ace96938ebc0)
  )
  (wire (pts (xy 187.96 78.74) (xy 187.96 93.98))
    (stroke (width 0) (type default))
    (uuid 74a2f78b-687c-4531-bbef-b84f6fd82e54)
  )
  (wire (pts (xy 149.86 76.2) (xy 116.84 76.2))
    (stroke (width 0) (type default))
    (uuid 7a1e348e-5276-4473-a1b6-51cf7673898c)
  )
  (wire (pts (xy 187.96 109.22) (xy 198.12 109.22))
    (stroke (width 0) (type default))
    (uuid 887fb9b7-09b4-4c92-bd1d-a0c8237abf9e)
  )
  (wire (pts (xy 121.92 91.44) (xy 121.92 96.52))
    (stroke (width 0) (type default))
    (uuid 8ca0e745-b2f6-4e5a-a8df-598a492bb0c8)
  )
  (wire (pts (xy 119.38 93.98) (xy 111.76 93.98))
    (stroke (width 0) (type default))
    (uuid 90c9846d-b9be-4737-bd55-3b6aaa03c7f5)
  )
  (wire (pts (xy 185.42 106.68) (xy 198.12 106.68))
    (stroke (width 0) (type default))
    (uuid 92671f6f-d8e0-4f12-a574-e2469e62d12e)
  )
  (wire (pts (xy 190.5 129.54) (xy 154.94 129.54))
    (stroke (width 0) (type default))
    (uuid 969425ac-d840-4597-8f67-5834d86bcc9a)
  )
  (wire (pts (xy 182.88 106.68) (xy 172.72 106.68))
    (stroke (width 0) (type default))
    (uuid a52de325-95af-40d8-8325-6c5fe6c093e4)
  )
  (wire (pts (xy 116.84 129.54) (xy 116.84 111.76))
    (stroke (width 0) (type default))
    (uuid a868f75f-8288-4840-867c-811c6b060c7b)
  )
  (wire (pts (xy 172.72 91.44) (xy 185.42 91.44))
    (stroke (width 0) (type default))
    (uuid a90324c8-3171-477e-b5f0-d77a9a3c9b58)
  )
  (wire (pts (xy 121.92 111.76) (xy 121.92 106.68))
    (stroke (width 0) (type default))
    (uuid b61c99d5-8909-464a-b0c4-c0bdca86be64)
  )
  (wire (pts (xy 116.84 76.2) (xy 116.84 91.44))
    (stroke (width 0) (type default))
    (uuid c0ae975b-93f9-4ec2-8be1-2a4bcc49560c)
  )
  (wire (pts (xy 111.76 109.22) (xy 119.38 109.22))
    (stroke (width 0) (type default))
    (uuid c73e9d35-9481-4516-bb28-e4b5e500bf55)
  )
  (wire (pts (xy 132.08 96.52) (xy 124.46 96.52))
    (stroke (width 0) (type default))
    (uuid c8f1801b-a1d8-4cca-b583-cb875d2759f6)
  )
  (wire (pts (xy 144.78 78.74) (xy 119.38 78.74))
    (stroke (width 0) (type default))
    (uuid c98bde15-161e-48f7-bf42-40b5395acb44)
  )
  (wire (pts (xy 124.46 96.52) (xy 124.46 99.06))
    (stroke (width 0) (type default))
    (uuid d11ba534-6634-4624-9341-0018dbc01f22)
  )
  (wire (pts (xy 132.08 111.76) (xy 121.92 111.76))
    (stroke (width 0) (type default))
    (uuid d2309e37-954d-40fe-878b-78ee6291f4be)
  )
  (wire (pts (xy 190.5 91.44) (xy 190.5 76.2))
    (stroke (width 0) (type default))
    (uuid d33d3b8a-afaf-43de-9138-acf8b0d75de7)
  )
  (wire (pts (xy 198.12 104.14) (xy 182.88 104.14))
    (stroke (width 0) (type default))
    (uuid d4630537-79ca-4c59-a7b3-4ceb49a6d225)
  )
  (wire (pts (xy 111.76 101.6) (xy 132.08 101.6))
    (stroke (width 0) (type default))
    (uuid d9c82f4b-0eb7-4870-8951-052a55de468e)
  )
  (wire (pts (xy 119.38 78.74) (xy 119.38 93.98))
    (stroke (width 0) (type default))
    (uuid dda8b7ab-abf3-4d61-8378-e3df28eec8b8)
  )
  (wire (pts (xy 198.12 91.44) (xy 190.5 91.44))
    (stroke (width 0) (type default))
    (uuid dfb97244-8045-444e-8e56-0c4620e77dcd)
  )
  (wire (pts (xy 182.88 104.14) (xy 182.88 106.68))
    (stroke (width 0) (type default))
    (uuid e6d80bba-782f-41f7-be7c-36eec7710561)
  )
  (wire (pts (xy 149.86 129.54) (xy 116.84 129.54))
    (stroke (width 0) (type default))
    (uuid e947714e-16d5-4018-b688-b3c7a353cc64)
  )
  (wire (pts (xy 132.08 91.44) (xy 121.92 91.44))
    (stroke (width 0) (type default))
    (uuid ec449577-deaf-4453-9d6f-dbd3deacdaab)
  )
  (wire (pts (xy 182.88 96.52) (xy 182.88 99.06))
    (stroke (width 0) (type default))
    (uuid ec758acc-dabd-40c5-aa30-bdff1d81edf5)
  )
  (wire (pts (xy 172.72 96.52) (xy 182.88 96.52))
    (stroke (width 0) (type default))
    (uuid ee35ba70-9012-4e0b-8d95-20f9885b9695)
  )
  (wire (pts (xy 144.78 127) (xy 119.38 127))
    (stroke (width 0) (type default))
    (uuid f5fc3be8-3003-4050-9eb6-360d3ee47321)
  )
  (wire (pts (xy 124.46 106.68) (xy 124.46 104.14))
    (stroke (width 0) (type default))
    (uuid fe4f876a-4213-4779-a157-86d6ccb62db5)
  )

  (label "RFGND" (at 124.46 101.6 0) (fields_autoplaced)
    (effects (font (size 1.27 1.27)) (justify left bottom))
    (uuid 223634a5-89fc-46d4-8da4-46027fdaa104)
  )
  (label "ROUT{slash}DOUT" (at 172.72 106.68 0) (fields_autoplaced)
    (effects (font (size 1.27 1.27)) (justify left bottom))
    (uuid 41506202-5f37-4a6e-a38d-534d8d90a01f)
  )
  (label "VA" (at 172.72 127 0) (fields_autoplaced)
    (effects (font (size 1.27 1.27)) (justify left bottom))
    (uuid 4eddc03e-9205-45df-ad78-d1de4283ebc9)
  )
  (label "SCLK" (at 124.46 96.52 0) (fields_autoplaced)
    (effects (font (size 1.27 1.27)) (justify left bottom))
    (uuid 606265fb-b3bb-48cd-9d3d-d099aa3bbbfd)
  )
  (label "LOUT{slash}DFS" (at 172.72 101.6 0) (fields_autoplaced)
    (effects (font (size 1.27 1.27)) (justify left bottom))
    (uuid 6624f5d2-63b5-49ca-87cd-a411f0e3a540)
  )
  (label "~{SEN}" (at 124.46 129.54 0) (fields_autoplaced)
    (effects (font (size 1.27 1.27)) (justify left bottom))
    (uuid 7e3cdd89-5058-4ef7-88a3-bd08cbca99d3)
  )
  (label "GND" (at 172.72 111.76 0) (fields_autoplaced)
    (effects (font (size 1.27 1.27)) (justify left bottom))
    (uuid 9c5a4904-be76-4e22-89aa-77f00a2a65fa)
  )
  (label "GPO3{slash}DCLK" (at 172.72 76.2 0) (fields_autoplaced)
    (effects (font (size 1.27 1.27)) (justify left bottom))
    (uuid a22d75b8-682a-4bb0-ab45-5ca9b3e579ab)
  )
  (label "DOUT" (at 172.72 96.52 0) (fields_autoplaced)
    (effects (font (size 1.27 1.27)) (justify left bottom))
    (uuid a25252ee-c2ce-4c86-9541-db198033e8d9)
  )
  (label "~{RST}" (at 124.46 127 0) (fields_autoplaced)
    (effects (font (size 1.27 1.27)) (justify left bottom))
    (uuid acce932a-a9f6-421e-b24e-d624da6e6b4a)
  )
  (label "GPO1" (at 124.46 78.74 0) (fields_autoplaced)
    (effects (font (size 1.27 1.27)) (justify left bottom))
    (uuid b2878022-aa1a-4a08-b6c2-186556828764)
  )
  (label "NC" (at 172.72 129.54 0) (fields_autoplaced)
    (effects (font (size 1.27 1.27)) (justify left bottom))
    (uuid bf81eec2-5935-489f-a377-61699a887c54)
  )
  (label "VD" (at 124.46 111.76 0) (fields_autoplaced)
    (effects (font (size 1.27 1.27)) (justify left bottom))
    (uuid ca469e03-f1d2-4262-bc13-48843f142394)
  )
  (label "GPO2{slash}~{INT}" (at 124.46 76.2 0) (fields_autoplaced)
    (effects (font (size 1.27 1.27)) (justify left bottom))
    (uuid cdc96f2c-9d3e-4c64-9ef3-b630f9e984f9)
  )
  (label "SDIO" (at 124.46 91.44 0) (fields_autoplaced)
    (effects (font (size 1.27 1.27)) (justify left bottom))
    (uuid da156c26-a75d-4e7c-adf0-23016c2d1072)
  )
  (label "DFS" (at 172.72 78.74 0) (fields_autoplaced)
    (effects (font (size 1.27 1.27)) (justify left bottom))
    (uuid e59133e6-4488-44ea-a779-8221282f67e2)
  )
  (label "AMI" (at 124.46 106.68 0) (fields_autoplaced)
    (effects (font (size 1.27 1.27)) (justify left bottom))
    (uuid f0826330-3d1a-4c9a-85e1-b421856121da)
  )
  (label "FMI" (at 172.72 91.44 0) (fields_autoplaced)
    (effects (font (size 1.27 1.27)) (justify left bottom))
    (uuid f807c869-9b5f-410b-9664-df444ff4cd60)
  )

  (symbol (lib_id "Connector_Generic:Conn_01x09") (at 106.68 101.6 0) (mirror y) (unit 1)
    (in_bom yes) (on_board yes) (dnp no) (fields_autoplaced)
    (uuid 375f2eaf-f686-442a-aa54-e5cabdb30914)
    (property "Reference" "J1" (at 106.68 86.36 0)
      (effects (font (size 1.27 1.27)))
    )
    (property "Value" "Conn_01x09" (at 106.68 88.9 0)
      (effects (font (size 1.27 1.27)))
    )
    (property "Footprint" "Connector_PinHeader_2.54mm:PinHeader_1x09_P2.54mm_Vertical" (at 106.68 101.6 0)
      (effects (font (size 1.27 1.27)) hide)
    )
    (property "Datasheet" "~" (at 106.68 101.6 0)
      (effects (font (size 1.27 1.27)) hide)
    )
    (pin "1" (uuid ea0ce008-9731-45f9-a662-df86155b782e))
    (pin "2" (uuid 4558bbf2-e46f-44cd-a5f3-4a68fab14354))
    (pin "3" (uuid c78e1d3e-6343-4d35-9901-6133251f3071))
    (pin "4" (uuid cf28cdaa-2b37-4f0a-91a9-4ddbb870d406))
    (pin "5" (uuid 06e3cb69-d4cd-431e-8f9a-4bcda0898cd7))
    (pin "6" (uuid 2c5fbae6-c139-441c-a663-632284640136))
    (pin "7" (uuid 2aac3652-84bc-4a7b-8604-1ad135c0a13c))
    (pin "8" (uuid cd521c8c-de69-4e6f-8036-09682753afd3))
    (pin "9" (uuid 277dbc6a-d692-4603-a6cd-2984cbc730aa))
    (instances
      (project "Si473x-i2S-module-breadboard-adapter"
        (path "/360a7ce5-730d-4a2d-a6d9-e180bbb2b2c0"
          (reference "J1") (unit 1)
        )
      )
    )
  )

  (symbol (lib_id "_symbol:Si473x-i2s-module") (at 152.4 101.6 0) (unit 1)
    (in_bom yes) (on_board yes) (dnp no) (fields_autoplaced)
    (uuid 3bcb9365-7453-4590-a94f-8c7014777811)
    (property "Reference" "U1" (at 161.9759 80.01 0)
      (effects (font (size 1.27 1.27)) (justify left))
    )
    (property "Value" "Si473x-i2s-module" (at 161.9759 82.55 0)
      (effects (font (size 1.27 1.27)) (justify left))
    )
    (property "Footprint" "_footprint:Si473x-i2s-module" (at 152.4 101.6 0)
      (effects (font (size 1.27 1.27)) hide)
    )
    (property "Datasheet" "" (at 152.4 101.6 0)
      (effects (font (size 1.27 1.27)) hide)
    )
    (pin "1" (uuid 4ebafc51-14cc-453e-b408-e27d458442f1))
    (pin "10" (uuid 2b2ff2a2-1f09-42f4-be3e-5ded058f1a6c))
    (pin "11" (uuid 36fad198-098f-4ab9-8b69-4e960eb5677c))
    (pin "12" (uuid 47e4c516-a12e-4926-a150-7c41f3e477eb))
    (pin "13" (uuid 7126050f-bb68-4c9a-acdb-5d40d458c4c9))
    (pin "14" (uuid 869ae152-5d5d-4980-ac0c-529420f5f232))
    (pin "15" (uuid f20a2e75-dca7-4805-933f-407a39ea0f51))
    (pin "16" (uuid 514d53c6-3e44-4eae-ad54-884a7b38f646))
    (pin "17" (uuid 0535c005-ad9a-4785-9776-6d0f1aef70d4))
    (pin "18" (uuid 62442cc9-7142-4f21-840b-5730a5bdf650))
    (pin "2" (uuid 6716a6f2-7d30-4c6e-9ae9-aa93bb02bd61))
    (pin "3" (uuid 357e8736-a6a1-48ae-b72e-fea5cbc72869))
    (pin "4" (uuid 88e12249-807b-43d7-ae8c-f5af48f23862))
    (pin "5" (uuid 36639226-dfc2-48b2-b840-4b889dcf62e0))
    (pin "6" (uuid 67a3e892-c3fc-4d50-80d1-f789383aecfe))
    (pin "7" (uuid adcbb3a1-1d7f-446c-8b87-bdd1de14dfe6))
    (pin "8" (uuid 534f6320-8fcb-4df6-b7a4-7c6310cb2ec7))
    (pin "9" (uuid 48452ae1-f3a2-43ab-b925-7bd469f812a2))
    (instances
      (project "Si473x-i2S-module-breadboard-adapter"
        (path "/360a7ce5-730d-4a2d-a6d9-e180bbb2b2c0"
          (reference "U1") (unit 1)
        )
      )
    )
  )

  (symbol (lib_id "Connector_Generic:Conn_01x09") (at 203.2 101.6 0) (mirror x) (unit 1)
    (in_bom yes) (on_board yes) (dnp no) (fields_autoplaced)
    (uuid a512ba70-7336-4c80-8933-eaf2ee699ca3)
    (property "Reference" "J2" (at 203.2 86.36 0)
      (effects (font (size 1.27 1.27)))
    )
    (property "Value" "Conn_01x09" (at 203.2 88.9 0)
      (effects (font (size 1.27 1.27)))
    )
    (property "Footprint" "Connector_PinHeader_2.54mm:PinHeader_1x09_P2.54mm_Vertical" (at 203.2 101.6 0)
      (effects (font (size 1.27 1.27)) hide)
    )
    (property "Datasheet" "~" (at 203.2 101.6 0)
      (effects (font (size 1.27 1.27)) hide)
    )
    (pin "1" (uuid b857dbe8-4cd2-4727-b8b7-9dd8564c38cb))
    (pin "2" (uuid 52419a34-b291-49ed-bfb7-d05b83a519c7))
    (pin "3" (uuid 445c6209-5dec-434a-a530-e657e9dff163))
    (pin "4" (uuid 02bd75a0-67fe-4f90-a2bd-ad9f983984d3))
    (pin "5" (uuid 4567fc46-25c1-4d6c-9d6a-d8601136d2a5))
    (pin "6" (uuid d9802b9b-c762-44a8-aa04-bcfb6c70c61a))
    (pin "7" (uuid bbf7e78e-bf55-4ca3-a6bd-148e66a56fbb))
    (pin "8" (uuid 325c41aa-3b84-41d1-8b36-a6e84eed85ec))
    (pin "9" (uuid 42b1e7ee-c2a1-4576-9ce9-ce322ee979d5))
    (instances
      (project "Si473x-i2S-module-breadboard-adapter"
        (path "/360a7ce5-730d-4a2d-a6d9-e180bbb2b2c0"
          (reference "J2") (unit 1)
        )
      )
    )
  )

  (sheet_instances
    (path "/" (page "1"))
  )
)
