(kicad_sch (version 20230121) (generator eeschema)

  (uuid ce629a0e-7f11-4f3a-82d1-a509c49399fe)

  (paper "A4")

  (lib_symbols
    (symbol "Device:C" (pin_numbers hide) (pin_names (offset 0.254)) (in_bom yes) (on_board yes)
      (property "Reference" "C" (at 0.635 2.54 0)
        (effects (font (size 1.27 1.27)) (justify left))
      )
      (property "Value" "C" (at 0.635 -2.54 0)
        (effects (font (size 1.27 1.27)) (justify left))
      )
      (property "Footprint" "" (at 0.9652 -3.81 0)
        (effects (font (size 1.27 1.27)) hide)
      )
      (property "Datasheet" "~" (at 0 0 0)
        (effects (font (size 1.27 1.27)) hide)
      )
      (property "ki_keywords" "cap capacitor" (at 0 0 0)
        (effects (font (size 1.27 1.27)) hide)
      )
      (property "ki_description" "Unpolarized capacitor" (at 0 0 0)
        (effects (font (size 1.27 1.27)) hide)
      )
      (property "ki_fp_filters" "C_*" (at 0 0 0)
        (effects (font (size 1.27 1.27)) hide)
      )
      (symbol "C_0_1"
        (polyline
          (pts
            (xy -2.032 -0.762)
            (xy 2.032 -0.762)
          )
          (stroke (width 0.508) (type default))
          (fill (type none))
        )
        (polyline
          (pts
            (xy -2.032 0.762)
            (xy 2.032 0.762)
          )
          (stroke (width 0.508) (type default))
          (fill (type none))
        )
      )
      (symbol "C_1_1"
        (pin passive line (at 0 3.81 270) (length 2.794)
          (name "~" (effects (font (size 1.27 1.27))))
          (number "1" (effects (font (size 1.27 1.27))))
        )
        (pin passive line (at 0 -3.81 90) (length 2.794)
          (name "~" (effects (font (size 1.27 1.27))))
          (number "2" (effects (font (size 1.27 1.27))))
        )
      )
    )
    (symbol "Device:R" (pin_numbers hide) (pin_names (offset 0)) (in_bom yes) (on_board yes)
      (property "Reference" "R" (at 2.032 0 90)
        (effects (font (size 1.27 1.27)))
      )
      (property "Value" "R" (at 0 0 90)
        (effects (font (size 1.27 1.27)))
      )
      (property "Footprint" "" (at -1.778 0 90)
        (effects (font (size 1.27 1.27)) hide)
      )
      (property "Datasheet" "~" (at 0 0 0)
        (effects (font (size 1.27 1.27)) hide)
      )
      (property "ki_keywords" "R res resistor" (at 0 0 0)
        (effects (font (size 1.27 1.27)) hide)
      )
      (property "ki_description" "Resistor" (at 0 0 0)
        (effects (font (size 1.27 1.27)) hide)
      )
      (property "ki_fp_filters" "R_*" (at 0 0 0)
        (effects (font (size 1.27 1.27)) hide)
      )
      (symbol "R_0_1"
        (rectangle (start -1.016 -2.54) (end 1.016 2.54)
          (stroke (width 0.254) (type default))
          (fill (type none))
        )
      )
      (symbol "R_1_1"
        (pin passive line (at 0 3.81 270) (length 1.27)
          (name "~" (effects (font (size 1.27 1.27))))
          (number "1" (effects (font (size 1.27 1.27))))
        )
        (pin passive line (at 0 -3.81 90) (length 1.27)
          (name "~" (effects (font (size 1.27 1.27))))
          (number "2" (effects (font (size 1.27 1.27))))
        )
      )
    )
    (symbol "Mechanical:MountingHole" (pin_names (offset 1.016)) (in_bom yes) (on_board yes)
      (property "Reference" "H" (at 0 5.08 0)
        (effects (font (size 1.27 1.27)))
      )
      (property "Value" "MountingHole" (at 0 3.175 0)
        (effects (font (size 1.27 1.27)))
      )
      (property "Footprint" "" (at 0 0 0)
        (effects (font (size 1.27 1.27)) hide)
      )
      (property "Datasheet" "~" (at 0 0 0)
        (effects (font (size 1.27 1.27)) hide)
      )
      (property "ki_keywords" "mounting hole" (at 0 0 0)
        (effects (font (size 1.27 1.27)) hide)
      )
      (property "ki_description" "Mounting Hole without connection" (at 0 0 0)
        (effects (font (size 1.27 1.27)) hide)
      )
      (property "ki_fp_filters" "MountingHole*" (at 0 0 0)
        (effects (font (size 1.27 1.27)) hide)
      )
      (symbol "MountingHole_0_1"
        (circle (center 0 0) (radius 1.27)
          (stroke (width 1.27) (type default))
          (fill (type none))
        )
      )
    )
    (symbol "Oscillator:SG-3030CM" (in_bom yes) (on_board yes)
      (property "Reference" "X" (at -5.08 -6.35 0)
        (effects (font (size 1.27 1.27)) (justify left))
      )
      (property "Value" "SG-3030CM" (at 1.27 -6.35 0)
        (effects (font (size 1.27 1.27)) (justify left))
      )
      (property "Footprint" "Oscillator:Oscillator_SMD_SeikoEpson_SG3030CM" (at 0 -8.89 0)
        (effects (font (size 1.27 1.27)) hide)
      )
      (property "Datasheet" "https://support.epson.biz/td/api/doc_check.php?mode=dl&lang=en&Parts=SG-3030CM" (at -2.54 0 0)
        (effects (font (size 1.27 1.27)) hide)
      )
      (property "ki_keywords" "Crystal Clock Oscillator" (at 0 0 0)
        (effects (font (size 1.27 1.27)) hide)
      )
      (property "ki_description" "32.768kHz Crystal Oscillator (SPXO)" (at 0 0 0)
        (effects (font (size 1.27 1.27)) hide)
      )
      (property "ki_fp_filters" "Oscillator*SMD*SeikoEpson*SG3030CM*" (at 0 0 0)
        (effects (font (size 1.27 1.27)) hide)
      )
      (symbol "SG-3030CM_0_1"
        (rectangle (start -5.08 5.08) (end 5.08 -5.08)
          (stroke (width 0.254) (type default))
          (fill (type background))
        )
        (polyline
          (pts
            (xy -1.905 -0.635)
            (xy -1.27 -0.635)
            (xy -1.27 0.635)
            (xy -0.635 0.635)
            (xy -0.635 -0.635)
            (xy 0 -0.635)
            (xy 0 0.635)
            (xy 0.635 0.635)
            (xy 0.635 -0.635)
          )
          (stroke (width 0) (type default))
          (fill (type none))
        )
      )
      (symbol "SG-3030CM_1_1"
        (pin power_in line (at 2.54 7.62 270) (length 2.54)
          (name "VIO" (effects (font (size 1.27 1.27))))
          (number "1" (effects (font (size 1.27 1.27))))
        )
        (pin power_in line (at 0 -7.62 90) (length 2.54)
          (name "GND" (effects (font (size 1.27 1.27))))
          (number "2" (effects (font (size 1.27 1.27))))
        )
        (pin output line (at 7.62 0 180) (length 2.54)
          (name "OUT" (effects (font (size 1.27 1.27))))
          (number "3" (effects (font (size 1.27 1.27))))
        )
        (pin power_in line (at -2.54 7.62 270) (length 2.54)
          (name "Vcc" (effects (font (size 1.27 1.27))))
          (number "4" (effects (font (size 1.27 1.27))))
        )
      )
    )
    (symbol "_project:Si473x-D60-GM" (pin_names (offset 1.016)) (in_bom yes) (on_board yes)
      (property "Reference" "U" (at -20.32 33.02 0)
        (effects (font (size 1.27 1.27)) (justify left))
      )
      (property "Value" "Si473x-D60-GM" (at -20.32 35.56 0)
        (effects (font (size 1.27 1.27)) (justify left))
      )
      (property "Footprint" "Si473x-i2s-module:Si473x-D60-GM" (at -20.32 38.1 0)
        (effects (font (size 1.27 1.27)) (justify left) hide)
      )
      (property "Datasheet" "http://www.silabs.com/Support Documents/TechnicalDocs/Si4730-31-34-35-D60.pdf" (at -20.32 40.64 0)
        (effects (font (size 1.27 1.27)) (justify left) hide)
      )
      (property "ki_keywords" "I2C, I2S" (at 0 0 0)
        (effects (font (size 1.27 1.27)) hide)
      )
      (property "ki_description" "AM/FM/SW/LW Radio IC" (at 0 0 0)
        (effects (font (size 1.27 1.27)) hide)
      )
      (symbol "Si473x-D60-GM_1_1"
        (rectangle (start -20.32 20.32) (end 20.32 -20.32)
          (stroke (width 0) (type default))
          (fill (type background))
        )
        (pin passive line (at -22.86 10.16 0) (length 2.54)
          (name "NC" (effects (font (size 1.016 1.016))))
          (number "1" (effects (font (size 1.016 1.016))))
        )
        (pin power_in line (at 10.16 -22.86 90) (length 2.54)
          (name "VD" (effects (font (size 1.016 1.016))))
          (number "10" (effects (font (size 1.016 1.016))))
        )
        (pin power_in line (at 22.86 -10.16 180) (length 2.54)
          (name "VA" (effects (font (size 1.016 1.016))))
          (number "11" (effects (font (size 1.016 1.016))))
        )
        (pin power_in line (at 22.86 -5.08 180) (length 2.54)
          (name "GND" (effects (font (size 1.016 1.016))))
          (number "12" (effects (font (size 1.016 1.016))))
        )
        (pin output line (at 22.86 0 180) (length 2.54)
          (name "ROUT/DOUT" (effects (font (size 1.016 1.016))))
          (number "13" (effects (font (size 1.016 1.016))))
        )
        (pin bidirectional line (at 22.86 5.08 180) (length 2.54)
          (name "LOUT/DFS" (effects (font (size 1.016 1.016))))
          (number "14" (effects (font (size 1.016 1.016))))
        )
        (pin output line (at 22.86 10.16 180) (length 2.54)
          (name "DOUT" (effects (font (size 1.016 1.016))))
          (number "15" (effects (font (size 1.016 1.016))))
        )
        (pin input line (at 10.16 22.86 270) (length 2.54)
          (name "DFS" (effects (font (size 1.016 1.016))))
          (number "16" (effects (font (size 1.016 1.016))))
        )
        (pin bidirectional line (at 5.08 22.86 270) (length 2.54)
          (name "GPO3/DCLK" (effects (font (size 1.016 1.016))))
          (number "17" (effects (font (size 1.016 1.016))))
        )
        (pin unspecified line (at 0 22.86 270) (length 2.54)
          (name "~{INT}" (effects (font (size 1.016 1.016))))
          (number "18" (effects (font (size 1.016 1.016))))
        )
        (pin unspecified line (at -5.08 22.86 270) (length 2.54)
          (name "GPO1" (effects (font (size 1.016 1.016))))
          (number "19" (effects (font (size 1.016 1.016))))
        )
        (pin input line (at -22.86 5.08 0) (length 2.54)
          (name "FMI" (effects (font (size 1.016 1.016))))
          (number "2" (effects (font (size 1.016 1.016))))
        )
        (pin passive line (at -10.16 22.86 270) (length 2.54)
          (name "NC" (effects (font (size 1.016 1.016))))
          (number "20" (effects (font (size 1.016 1.016))))
        )
        (pin power_in line (at -15.24 22.86 270) (length 2.54)
          (name "GND" (effects (font (size 1.016 1.016))))
          (number "21" (effects (font (size 1.016 1.016))))
        )
        (pin power_in line (at -22.86 0 0) (length 2.54)
          (name "RFGND" (effects (font (size 1.016 1.016))))
          (number "3" (effects (font (size 1.016 1.016))))
        )
        (pin input line (at -22.86 -5.08 0) (length 2.54)
          (name "AMI" (effects (font (size 1.016 1.016))))
          (number "4" (effects (font (size 1.016 1.016))))
        )
        (pin input line (at -22.86 -10.16 0) (length 2.54)
          (name "~{RST}" (effects (font (size 1.016 1.016))))
          (number "5" (effects (font (size 1.016 1.016))))
        )
        (pin input line (at -10.16 -22.86 90) (length 2.54)
          (name "~{SEN}" (effects (font (size 1.016 1.016))))
          (number "6" (effects (font (size 1.016 1.016))))
        )
        (pin input clock (at -5.08 -22.86 90) (length 2.54)
          (name "SCLK" (effects (font (size 1.016 1.016))))
          (number "7" (effects (font (size 1.016 1.016))))
        )
        (pin bidirectional line (at 0 -22.86 90) (length 2.54)
          (name "SDIO" (effects (font (size 1.016 1.016))))
          (number "8" (effects (font (size 1.016 1.016))))
        )
        (pin input clock (at 5.08 -22.86 90) (length 2.54)
          (name "RCLK" (effects (font (size 1.016 1.016))))
          (number "9" (effects (font (size 1.016 1.016))))
        )
      )
    )
    (symbol "_project:conn_castellated_5_4_5_4" (in_bom yes) (on_board yes)
      (property "Reference" "J" (at 0 30.48 0)
        (effects (font (size 1.27 1.27)))
      )
      (property "Value" "conn_castellated_5_4_5_4" (at 0 -30.48 0)
        (effects (font (size 1.27 1.27)))
      )
      (property "Footprint" "_project:conn_castellated_5_4_5_3" (at -35.56 -22.86 0)
        (effects (font (size 1.27 1.27)) hide)
      )
      (property "Datasheet" "" (at -35.56 -22.86 0)
        (effects (font (size 1.27 1.27)) hide)
      )
      (property "ki_locked" "" (at 0 0 0)
        (effects (font (size 1.27 1.27)))
      )
      (symbol "conn_castellated_5_4_5_4_1_1"
        (rectangle (start -27.94 7.62) (end -25.4 -7.62)
          (stroke (width 0) (type default))
          (fill (type background))
        )
        (pin bidirectional line (at -22.86 5.08 180) (length 2.54)
          (name "" (effects (font (size 1.27 1.27))))
          (number "1" (effects (font (size 1.27 1.27))))
        )
        (pin bidirectional line (at -22.86 2.54 180) (length 2.54)
          (name "" (effects (font (size 1.27 1.27))))
          (number "2" (effects (font (size 1.27 1.27))))
        )
        (pin bidirectional line (at -22.86 0 180) (length 2.54)
          (name "" (effects (font (size 1.27 1.27))))
          (number "3" (effects (font (size 1.27 1.27))))
        )
        (pin bidirectional line (at -22.86 -2.54 180) (length 2.54)
          (name "" (effects (font (size 1.27 1.27))))
          (number "4" (effects (font (size 1.27 1.27))))
        )
        (pin bidirectional line (at -22.86 -5.08 180) (length 2.54)
          (name "" (effects (font (size 1.27 1.27))))
          (number "5" (effects (font (size 1.27 1.27))))
        )
      )
      (symbol "conn_castellated_5_4_5_4_2_1"
        (rectangle (start -5.08 -25.4) (end 7.62 -27.94)
          (stroke (width 0) (type default))
          (fill (type background))
        )
        (pin bidirectional line (at -2.54 -22.86 270) (length 2.54)
          (name "" (effects (font (size 1.27 1.27))))
          (number "6" (effects (font (size 1.27 1.27))))
        )
        (pin bidirectional line (at 0 -22.86 270) (length 2.54)
          (name "" (effects (font (size 1.27 1.27))))
          (number "7" (effects (font (size 1.27 1.27))))
        )
        (pin bidirectional line (at 2.54 -22.86 270) (length 2.54)
          (name "" (effects (font (size 1.27 1.27))))
          (number "8" (effects (font (size 1.27 1.27))))
        )
        (pin bidirectional line (at 5.08 -22.86 270) (length 2.54)
          (name "" (effects (font (size 1.27 1.27))))
          (number "9" (effects (font (size 1.27 1.27))))
        )
      )
      (symbol "conn_castellated_5_4_5_4_3_1"
        (rectangle (start 25.4 7.62) (end 27.94 -7.62)
          (stroke (width 0) (type default))
          (fill (type background))
        )
        (pin bidirectional line (at 22.86 -5.08 0) (length 2.54)
          (name "" (effects (font (size 1.27 1.27))))
          (number "10" (effects (font (size 1.27 1.27))))
        )
        (pin bidirectional line (at 22.86 -2.54 0) (length 2.54)
          (name "" (effects (font (size 1.27 1.27))))
          (number "11" (effects (font (size 1.27 1.27))))
        )
        (pin bidirectional line (at 22.86 0 0) (length 2.54)
          (name "" (effects (font (size 1.27 1.27))))
          (number "12" (effects (font (size 1.27 1.27))))
        )
        (pin bidirectional line (at 22.86 2.54 0) (length 2.54)
          (name "" (effects (font (size 1.27 1.27))))
          (number "13" (effects (font (size 1.27 1.27))))
        )
        (pin bidirectional line (at 22.86 5.08 0) (length 2.54)
          (name "" (effects (font (size 1.27 1.27))))
          (number "14" (effects (font (size 1.27 1.27))))
        )
      )
      (symbol "conn_castellated_5_4_5_4_4_1"
        (rectangle (start -7.62 27.94) (end 5.08 25.4)
          (stroke (width 0) (type default))
          (fill (type background))
        )
        (pin bidirectional line (at 2.54 22.86 90) (length 2.54)
          (name "" (effects (font (size 1.27 1.27))))
          (number "15" (effects (font (size 1.27 1.27))))
        )
        (pin bidirectional line (at 0 22.86 90) (length 2.54)
          (name "" (effects (font (size 1.27 1.27))))
          (number "16" (effects (font (size 1.27 1.27))))
        )
        (pin bidirectional line (at -2.54 22.86 90) (length 2.54)
          (name "" (effects (font (size 1.27 1.27))))
          (number "17" (effects (font (size 1.27 1.27))))
        )
        (pin bidirectional line (at -5.08 22.86 90) (length 2.54)
          (name "" (effects (font (size 1.27 1.27))))
          (number "18" (effects (font (size 1.27 1.27))))
        )
      )
    )
    (symbol "power:GND" (power) (pin_names (offset 0)) (in_bom yes) (on_board yes)
      (property "Reference" "#PWR" (at 0 -6.35 0)
        (effects (font (size 1.27 1.27)) hide)
      )
      (property "Value" "GND" (at 0 -3.81 0)
        (effects (font (size 1.27 1.27)))
      )
      (property "Footprint" "" (at 0 0 0)
        (effects (font (size 1.27 1.27)) hide)
      )
      (property "Datasheet" "" (at 0 0 0)
        (effects (font (size 1.27 1.27)) hide)
      )
      (property "ki_keywords" "power-flag" (at 0 0 0)
        (effects (font (size 1.27 1.27)) hide)
      )
      (property "ki_description" "Power symbol creates a global label with name \"GND\" , ground" (at 0 0 0)
        (effects (font (size 1.27 1.27)) hide)
      )
      (symbol "GND_0_1"
        (polyline
          (pts
            (xy 0 0)
            (xy 0 -1.27)
            (xy 1.27 -1.27)
            (xy 0 -2.54)
            (xy -1.27 -1.27)
            (xy 0 -1.27)
          )
          (stroke (width 0) (type default))
          (fill (type none))
        )
      )
      (symbol "GND_1_1"
        (pin power_in line (at 0 0 270) (length 0) hide
          (name "GND" (effects (font (size 1.27 1.27))))
          (number "1" (effects (font (size 1.27 1.27))))
        )
      )
    )
  )

  (junction (at 119.38 129.54) (diameter 0) (color 0 0 0 0)
    (uuid 289ea4e1-12fc-4c2d-afa9-fb26b53ca265)
  )
  (junction (at 177.8 109.22) (diameter 0) (color 0 0 0 0)
    (uuid 80b3c2cb-49f8-4177-a516-24e1683aacfc)
  )
  (junction (at 157.48 127) (diameter 0) (color 0 0 0 0)
    (uuid b964ac8f-27d3-4015-95e0-58f4851f8bb8)
  )
  (junction (at 157.48 66.04) (diameter 0) (color 0 0 0 0)
    (uuid bec8f484-8356-460c-bd83-75da202f9634)
  )

  (no_connect (at 137.16 76.2) (uuid 896acb3b-94fb-42aa-8daa-71a5fa65b6f4))
  (no_connect (at 124.46 88.9) (uuid 896acb3b-94fb-42aa-8daa-71a5fa65b6f5))
  (no_connect (at 147.32 152.4) (uuid ddf5cdff-e55d-460c-b979-4e6be0d134c4))

  (wire (pts (xy 177.8 109.22) (xy 187.96 109.22))
    (stroke (width 0) (type default))
    (uuid 0efd6254-33e7-446b-8291-fffbe1273899)
  )
  (wire (pts (xy 236.22 104.14) (xy 233.68 104.14))
    (stroke (width 0) (type default))
    (uuid 246032c6-0c2d-40d3-99fd-2a5500906e21)
  )
  (wire (pts (xy 119.38 129.54) (xy 119.38 132.08))
    (stroke (width 0) (type default))
    (uuid 32d1b10e-ec68-4c07-a6cd-c10137800041)
  )
  (wire (pts (xy 119.38 129.54) (xy 124.46 129.54))
    (stroke (width 0) (type default))
    (uuid 36a7f3b0-789d-40fa-8056-f8f766d1d615)
  )
  (wire (pts (xy 187.96 127) (xy 187.96 109.22))
    (stroke (width 0) (type default))
    (uuid 46baefa7-f736-4ac5-86a9-7344306a746f)
  )
  (wire (pts (xy 157.48 63.5) (xy 157.48 66.04))
    (stroke (width 0) (type default))
    (uuid 56bfe2dc-98b5-4063-8cb8-b160f93c7233)
  )
  (wire (pts (xy 170.18 109.22) (xy 177.8 109.22))
    (stroke (width 0) (type default))
    (uuid 6021723d-03cc-4add-8581-f4ae876e904c)
  )
  (wire (pts (xy 127 63.5) (xy 132.08 63.5))
    (stroke (width 0) (type default))
    (uuid 61575840-fd03-4b10-a6d5-dfc7793dd2b9)
  )
  (wire (pts (xy 119.38 127) (xy 119.38 129.54))
    (stroke (width 0) (type default))
    (uuid 6b8f7dc8-60f9-4bd3-b18c-df2483750de0)
  )
  (wire (pts (xy 152.4 63.5) (xy 152.4 68.58))
    (stroke (width 0) (type default))
    (uuid 7a394992-1efb-44de-82d2-5dd70899275a)
  )
  (wire (pts (xy 167.64 127) (xy 157.48 127))
    (stroke (width 0) (type default))
    (uuid 7e2d3b9a-2e5e-4453-bd5e-8f6058812a72)
  )
  (wire (pts (xy 157.48 121.92) (xy 157.48 127))
    (stroke (width 0) (type default))
    (uuid 83ddfc9d-d5b3-4263-94c7-b10aeb502895)
  )
  (wire (pts (xy 208.28 104.14) (xy 208.28 134.62))
    (stroke (width 0) (type default))
    (uuid 90f69247-c076-4bfa-af66-47195c26385d)
  )
  (wire (pts (xy 233.68 104.14) (xy 233.68 106.68))
    (stroke (width 0) (type default))
    (uuid 975191f1-8a19-4b0a-a93c-daf89eaa2201)
  )
  (wire (pts (xy 170.18 104.14) (xy 208.28 104.14))
    (stroke (width 0) (type default))
    (uuid a607699f-9217-4a90-b4f8-5303069918a4)
  )
  (wire (pts (xy 157.48 127) (xy 157.48 132.08))
    (stroke (width 0) (type default))
    (uuid abfc21ca-a8e5-4be0-ae6e-4ec0092c106b)
  )
  (wire (pts (xy 132.08 63.5) (xy 132.08 76.2))
    (stroke (width 0) (type default))
    (uuid b3c73fdc-284e-429a-8027-ff59c4f5474a)
  )
  (wire (pts (xy 177.8 109.22) (xy 177.8 132.08))
    (stroke (width 0) (type default))
    (uuid c28f37f1-198b-47a3-bea4-e215f59a9c26)
  )
  (wire (pts (xy 157.48 66.04) (xy 157.48 68.58))
    (stroke (width 0) (type default))
    (uuid c914d07e-4a6a-4702-9684-cd9ade03c735)
  )
  (wire (pts (xy 124.46 129.54) (xy 124.46 132.08))
    (stroke (width 0) (type default))
    (uuid cabc6fbd-5291-4b31-a006-754e20613320)
  )
  (wire (pts (xy 129.54 139.7) (xy 152.4 139.7))
    (stroke (width 0) (type default))
    (uuid cf189992-f86f-4544-b1e6-0b36ddb264c8)
  )
  (wire (pts (xy 127 66.04) (xy 127 63.5))
    (stroke (width 0) (type default))
    (uuid dbd31ac1-3f4a-4b94-83de-f2b440a35d41)
  )
  (wire (pts (xy 157.48 66.04) (xy 160.02 66.04))
    (stroke (width 0) (type default))
    (uuid e4ca29a3-5d17-4dbb-a992-5e789dc94cc4)
  )
  (wire (pts (xy 152.4 121.92) (xy 152.4 139.7))
    (stroke (width 0) (type default))
    (uuid f160bdcc-019e-451e-a423-573e10b17849)
  )

  (text "11x11mm radio module for the Si473x AM/FM/SW/LW radio IC.\nDesigned to be pin-compatible with the TEA5767 module where it counts."
    (at 179.07 172.72 0)
    (effects (font (size 1.27 1.27)) (justify left bottom))
    (uuid ff9d0ad9-7768-4c2c-b4a8-c6321322bc07)
  )

  (label "RCLK" (at 134.62 139.7 0) (fields_autoplaced)
    (effects (font (size 1.27 1.27)) (justify left bottom))
    (uuid 22a647fb-7531-4b09-8133-5781746af461)
  )

  (global_label "DOUT" (shape input) (at 236.22 96.52 180) (fields_autoplaced)
    (effects (font (size 1.27 1.27)) (justify right))
    (uuid 107d7d9d-fb34-4f57-902e-8a3802dddf50)
    (property "Intersheetrefs" "${INTERSHEET_REFS}" (at 228.9083 96.4406 0)
      (effects (font (size 1.27 1.27)) (justify right) hide)
    )
  )
  (global_label "RFGND" (shape output) (at 83.82 104.14 0) (fields_autoplaced)
    (effects (font (size 1.27 1.27)) (justify left))
    (uuid 13a18aeb-65c1-4fbd-ba05-47c9ef2c4108)
    (property "Intersheetrefs" "${INTERSHEET_REFS}" (at 92.4621 104.0606 0)
      (effects (font (size 1.27 1.27)) (justify left) hide)
    )
  )
  (global_label "~{SEN}" (shape input) (at 137.16 121.92 270) (fields_autoplaced)
    (effects (font (size 1.27 1.27)) (justify right))
    (uuid 160c893f-d967-47e1-a757-5ddb0ba06b8a)
    (property "Intersheetrefs" "${INTERSHEET_REFS}" (at 137.0806 128.0221 90)
      (effects (font (size 1.27 1.27)) (justify right) hide)
    )
  )
  (global_label "LOUT{slash}DFS" (shape output) (at 170.18 93.98 0) (fields_autoplaced)
    (effects (font (size 1.27 1.27)) (justify left))
    (uuid 18ae3f6a-2389-41c8-9f5b-09452ff51094)
    (property "Intersheetrefs" "${INTERSHEET_REFS}" (at 182.1483 93.9006 0)
      (effects (font (size 1.27 1.27)) (justify left) hide)
    )
  )
  (global_label "DFS" (shape input) (at 157.48 63.5 90) (fields_autoplaced)
    (effects (font (size 1.27 1.27)) (justify left))
    (uuid 1d9ada8e-d301-47dd-971d-31f76f7d60b3)
    (property "Intersheetrefs" "${INTERSHEET_REFS}" (at 157.4006 57.5188 90)
      (effects (font (size 1.27 1.27)) (justify left) hide)
    )
  )
  (global_label "FMI" (shape input) (at 116.84 93.98 180) (fields_autoplaced)
    (effects (font (size 1.27 1.27)) (justify right))
    (uuid 217af7b4-84c6-4b38-b3e9-a39b88a42f09)
    (property "Intersheetrefs" "${INTERSHEET_REFS}" (at 111.2821 94.0594 0)
      (effects (font (size 1.27 1.27)) (justify right) hide)
    )
  )
  (global_label "DFS" (shape output) (at 149.86 27.94 270) (fields_autoplaced)
    (effects (font (size 1.27 1.27)) (justify right))
    (uuid 23269157-95d1-4c6f-a2a9-82571250eb8f)
    (property "Intersheetrefs" "${INTERSHEET_REFS}" (at 149.7806 33.9212 90)
      (effects (font (size 1.27 1.27)) (justify right) hide)
    )
  )
  (global_label "GPO1" (shape input) (at 142.24 27.94 270) (fields_autoplaced)
    (effects (font (size 1.27 1.27)) (justify right))
    (uuid 3bdff6f1-75b8-4db0-8a9a-499e575654f3)
    (property "Intersheetrefs" "${INTERSHEET_REFS}" (at 142.3194 35.4331 90)
      (effects (font (size 1.27 1.27)) (justify right) hide)
    )
  )
  (global_label "AMI" (shape output) (at 83.82 106.68 0) (fields_autoplaced)
    (effects (font (size 1.27 1.27)) (justify left))
    (uuid 417e8ea1-fa64-4f32-9b79-b37bd2ef42cd)
    (property "Intersheetrefs" "${INTERSHEET_REFS}" (at 89.3779 106.6006 0)
      (effects (font (size 1.27 1.27)) (justify left) hide)
    )
  )
  (global_label "VA" (shape output) (at 149.86 152.4 90) (fields_autoplaced)
    (effects (font (size 1.27 1.27)) (justify left))
    (uuid 43401e68-da6b-4407-a387-b1beb484725d)
    (property "Intersheetrefs" "${INTERSHEET_REFS}" (at 149.9394 147.8098 90)
      (effects (font (size 1.27 1.27)) (justify left) hide)
    )
  )
  (global_label "ROUT{slash}DOUT" (shape input) (at 236.22 101.6 180) (fields_autoplaced)
    (effects (font (size 1.27 1.27)) (justify right))
    (uuid 44bf42ab-f654-4b9c-a185-475a1e0983be)
    (property "Intersheetrefs" "${INTERSHEET_REFS}" (at 222.6793 101.6794 0)
      (effects (font (size 1.27 1.27)) (justify right) hide)
    )
  )
  (global_label "RFGND" (shape input) (at 124.46 99.06 180) (fields_autoplaced)
    (effects (font (size 1.27 1.27)) (justify right))
    (uuid 454a9e6d-46b1-43b0-b3ec-4cde85f3eaf6)
    (property "Intersheetrefs" "${INTERSHEET_REFS}" (at 115.8179 99.1394 0)
      (effects (font (size 1.27 1.27)) (justify right) hide)
    )
  )
  (global_label "~{SEN}" (shape output) (at 144.78 152.4 90) (fields_autoplaced)
    (effects (font (size 1.27 1.27)) (justify left))
    (uuid 612c77b6-5cdb-4f22-9675-019bc55b725e)
    (property "Intersheetrefs" "${INTERSHEET_REFS}" (at 144.7006 146.2979 90)
      (effects (font (size 1.27 1.27)) (justify left) hide)
    )
  )
  (global_label "SCLK" (shape output) (at 83.82 101.6 0) (fields_autoplaced)
    (effects (font (size 1.27 1.27)) (justify left))
    (uuid 6400a582-8368-4b91-a4a3-cf7d52397c1d)
    (property "Intersheetrefs" "${INTERSHEET_REFS}" (at 91.0107 101.5206 0)
      (effects (font (size 1.27 1.27)) (justify left) hide)
    )
  )
  (global_label "SDIO" (shape bidirectional) (at 83.82 99.06 0) (fields_autoplaced)
    (effects (font (size 1.27 1.27)) (justify left))
    (uuid 67931c58-2893-4832-a7c4-1691fae6dc92)
    (property "Intersheetrefs" "${INTERSHEET_REFS}" (at 90.6479 99.1394 0)
      (effects (font (size 1.27 1.27)) (justify left) hide)
    )
  )
  (global_label "~{RST}" (shape input) (at 124.46 109.22 180) (fields_autoplaced)
    (effects (font (size 1.27 1.27)) (justify right))
    (uuid 6e92c9f8-5a57-4960-93ff-5eef8be6fc26)
    (property "Intersheetrefs" "${INTERSHEET_REFS}" (at 118.5998 109.1406 0)
      (effects (font (size 1.27 1.27)) (justify right) hide)
    )
  )
  (global_label "FMI" (shape output) (at 236.22 93.98 180) (fields_autoplaced)
    (effects (font (size 1.27 1.27)) (justify right))
    (uuid 790de224-4edc-4bca-bcba-7b34ea031b86)
    (property "Intersheetrefs" "${INTERSHEET_REFS}" (at 230.6621 93.9006 0)
      (effects (font (size 1.27 1.27)) (justify right) hide)
    )
  )
  (global_label "AMI" (shape input) (at 124.46 104.14 180) (fields_autoplaced)
    (effects (font (size 1.27 1.27)) (justify right))
    (uuid 795a83d3-071e-480e-a811-e97d30392dc6)
    (property "Intersheetrefs" "${INTERSHEET_REFS}" (at 118.9021 104.2194 0)
      (effects (font (size 1.27 1.27)) (justify right) hide)
    )
  )
  (global_label "VD" (shape input) (at 119.38 127 90) (fields_autoplaced)
    (effects (font (size 1.27 1.27)) (justify left))
    (uuid 7ffade93-86f7-4689-b7a7-42a99473eedd)
    (property "Intersheetrefs" "${INTERSHEET_REFS}" (at 119.4594 122.2283 90)
      (effects (font (size 1.27 1.27)) (justify left) hide)
    )
  )
  (global_label "VA" (shape input) (at 177.8 132.08 270) (fields_autoplaced)
    (effects (font (size 1.27 1.27)) (justify right))
    (uuid 8545e93c-6a52-4ed1-b300-f974551b808f)
    (property "Intersheetrefs" "${INTERSHEET_REFS}" (at 177.7206 136.6702 90)
      (effects (font (size 1.27 1.27)) (justify right) hide)
    )
  )
  (global_label "GPO1" (shape output) (at 142.24 76.2 90) (fields_autoplaced)
    (effects (font (size 1.27 1.27)) (justify left))
    (uuid 861179b7-685d-4835-bed1-327ec0e57c24)
    (property "Intersheetrefs" "${INTERSHEET_REFS}" (at 142.1606 68.7069 90)
      (effects (font (size 1.27 1.27)) (justify left) hide)
    )
  )
  (global_label "GPO2{slash}~{INT}" (shape output) (at 147.32 76.2 90) (fields_autoplaced)
    (effects (font (size 1.27 1.27)) (justify left))
    (uuid 914f9b3a-2ed9-41bc-8639-e6373c0a3aa3)
    (property "Intersheetrefs" "${INTERSHEET_REFS}" (at 147.2406 64.4736 90)
      (effects (font (size 1.27 1.27)) (justify left) hide)
    )
  )
  (global_label "GP03{slash}DCLK" (shape bidirectional) (at 152.4 63.5 90) (fields_autoplaced)
    (effects (font (size 1.27 1.27)) (justify left))
    (uuid 9477a19e-92c9-4261-8875-c1ac617999c9)
    (property "Intersheetrefs" "${INTERSHEET_REFS}" (at 152.3206 49.9593 90)
      (effects (font (size 1.27 1.27)) (justify left) hide)
    )
  )
  (global_label "VD" (shape input) (at 157.48 132.08 270) (fields_autoplaced)
    (effects (font (size 1.27 1.27)) (justify right))
    (uuid a034952f-a440-4edc-b44b-9cffc860bb62)
    (property "Intersheetrefs" "${INTERSHEET_REFS}" (at 157.4006 136.8517 90)
      (effects (font (size 1.27 1.27)) (justify right) hide)
    )
  )
  (global_label "~{RST}" (shape output) (at 142.24 152.4 90) (fields_autoplaced)
    (effects (font (size 1.27 1.27)) (justify left))
    (uuid a8587b1b-81a9-4382-98f7-18ba3c7715f9)
    (property "Intersheetrefs" "${INTERSHEET_REFS}" (at 142.1606 146.5398 90)
      (effects (font (size 1.27 1.27)) (justify left) hide)
    )
  )
  (global_label "GPO2{slash}~{INT}" (shape input) (at 144.78 27.94 270) (fields_autoplaced)
    (effects (font (size 1.27 1.27)) (justify right))
    (uuid b60bd0cd-9a9c-4556-9c19-8ca1d1c777fe)
    (property "Intersheetrefs" "${INTERSHEET_REFS}" (at 144.8594 39.6664 90)
      (effects (font (size 1.27 1.27)) (justify right) hide)
    )
  )
  (global_label "LOUT{slash}DFS" (shape input) (at 236.22 99.06 180) (fields_autoplaced)
    (effects (font (size 1.27 1.27)) (justify right))
    (uuid bad3395d-ab28-4d42-bce0-43a67c636a05)
    (property "Intersheetrefs" "${INTERSHEET_REFS}" (at 224.2517 99.1394 0)
      (effects (font (size 1.27 1.27)) (justify right) hide)
    )
  )
  (global_label "SCLK" (shape input) (at 142.24 121.92 270) (fields_autoplaced)
    (effects (font (size 1.27 1.27)) (justify right))
    (uuid c240b9a1-35fb-476b-a87d-cb14c5e14362)
    (property "Intersheetrefs" "${INTERSHEET_REFS}" (at 142.1606 129.1107 90)
      (effects (font (size 1.27 1.27)) (justify right) hide)
    )
  )
  (global_label "GP03{slash}DCLK" (shape bidirectional) (at 147.32 27.94 270) (fields_autoplaced)
    (effects (font (size 1.27 1.27)) (justify right))
    (uuid c8ec4fe7-d044-4f5a-a38b-cc0089a508e4)
    (property "Intersheetrefs" "${INTERSHEET_REFS}" (at 147.3994 41.4807 90)
      (effects (font (size 1.27 1.27)) (justify right) hide)
    )
  )
  (global_label "DOUT" (shape output) (at 177.8 88.9 0) (fields_autoplaced)
    (effects (font (size 1.27 1.27)) (justify left))
    (uuid cb16c816-b2e0-4099-975d-c36c728b14ba)
    (property "Intersheetrefs" "${INTERSHEET_REFS}" (at 185.1117 88.8206 0)
      (effects (font (size 1.27 1.27)) (justify left) hide)
    )
  )
  (global_label "ROUT{slash}DOUT" (shape output) (at 170.18 99.06 0) (fields_autoplaced)
    (effects (font (size 1.27 1.27)) (justify left))
    (uuid e0782bc3-7cf4-435e-8a93-6e4bec49db5b)
    (property "Intersheetrefs" "${INTERSHEET_REFS}" (at 183.7207 98.9806 0)
      (effects (font (size 1.27 1.27)) (justify left) hide)
    )
  )
  (global_label "SDIO" (shape bidirectional) (at 147.32 121.92 270) (fields_autoplaced)
    (effects (font (size 1.27 1.27)) (justify right))
    (uuid ea92f13e-da0b-4304-a35a-3ddf8d32f6fd)
    (property "Intersheetrefs" "${INTERSHEET_REFS}" (at 147.2406 128.7479 90)
      (effects (font (size 1.27 1.27)) (justify right) hide)
    )
  )
  (global_label "VD" (shape output) (at 83.82 109.22 0) (fields_autoplaced)
    (effects (font (size 1.27 1.27)) (justify left))
    (uuid ff483f8f-7840-4583-bc2b-9d14efb94d13)
    (property "Intersheetrefs" "${INTERSHEET_REFS}" (at 88.5917 109.1406 0)
      (effects (font (size 1.27 1.27)) (justify left) hide)
    )
  )

  (symbol (lib_id "_project:conn_castellated_5_4_5_4") (at 106.68 104.14 0) (unit 1)
    (in_bom no) (on_board yes) (dnp no) (fields_autoplaced)
    (uuid 05dc7863-b40e-4d3c-8dda-7f3bc36f36f1)
    (property "Reference" "J1" (at 80.01 92.71 0)
      (effects (font (size 1.27 1.27)))
    )
    (property "Value" "conn_castellated_5_4_5_4" (at 80.01 95.25 0)
      (effects (font (size 1.27 1.27)))
    )
    (property "Footprint" "_project:conn_castellated_5_4_5_3" (at 71.12 127 0)
      (effects (font (size 1.27 1.27)) hide)
    )
    (property "Datasheet" "" (at 71.12 127 0)
      (effects (font (size 1.27 1.27)) hide)
    )
    (pin "1" (uuid fc20303e-1e8a-4ba9-a5cd-c6b7c770dac4))
    (pin "2" (uuid 4f18840f-dce5-49b2-b945-d9c4c3dc6d44))
    (pin "3" (uuid a11cf609-154f-43c4-b5ff-3359e44202e1))
    (pin "4" (uuid 1c523063-379e-4a10-a962-c14be061c503))
    (pin "5" (uuid a15582f3-a0d2-4999-a191-a80ecac2d0b7))
    (pin "6" (uuid b9c8e0a1-d07f-4309-8a9f-675c33015514))
    (pin "7" (uuid 8d33ea17-eefa-49ac-86df-7c9bd767fa9f))
    (pin "8" (uuid d661e35d-9fa8-4e9d-a010-c16188ab57a6))
    (pin "9" (uuid 08e8696f-32f0-4a88-b831-4f3afbcc5ee8))
    (pin "10" (uuid b90e7f72-0b13-45bf-aca4-8883e1d79613))
    (pin "11" (uuid 5ddb4472-4302-4eeb-8105-8b02e4937bb4))
    (pin "12" (uuid 3253bc7f-db68-42ca-838d-a866c5eab4de))
    (pin "13" (uuid 6c3d715f-e51b-4646-ae10-44d697d06c76))
    (pin "14" (uuid 067ecaaa-39a8-4671-b1a8-1a7b46734b0d))
    (pin "15" (uuid 19000b22-7b20-4088-8074-b313f531e761))
    (pin "16" (uuid ecc1e4b1-6456-4eca-a7a2-91efc2f8f077))
    (pin "17" (uuid a9a7a0b3-190c-4d3c-adb1-682beb735c3c))
    (pin "18" (uuid deb21888-18f5-4e91-91d7-aa3c4745ac0e))
    (instances
      (project "Si473x-i2s-module"
        (path "/ce629a0e-7f11-4f3a-82d1-a509c49399fe"
          (reference "J1") (unit 1)
        )
      )
    )
  )

  (symbol (lib_id "Mechanical:MountingHole") (at 101.6 25.4 0) (unit 1)
    (in_bom yes) (on_board yes) (dnp no) (fields_autoplaced)
    (uuid 0d8aa8f4-6ee2-4e11-ac50-cbe5d5161940)
    (property "Reference" "H1" (at 104.14 24.765 0)
      (effects (font (size 1.27 1.27)) (justify left))
    )
    (property "Value" "Tooling hole" (at 104.14 27.305 0)
      (effects (font (size 1.27 1.27)) (justify left))
    )
    (property "Footprint" "_project:tooling-hole" (at 101.6 25.4 0)
      (effects (font (size 1.27 1.27)) hide)
    )
    (property "Datasheet" "~" (at 101.6 25.4 0)
      (effects (font (size 1.27 1.27)) hide)
    )
    (instances
      (project "Si473x-i2s-module"
        (path "/ce629a0e-7f11-4f3a-82d1-a509c49399fe"
          (reference "H1") (unit 1)
        )
      )
    )
  )

  (symbol (lib_id "power:GND") (at 208.28 134.62 0) (unit 1)
    (in_bom yes) (on_board yes) (dnp no) (fields_autoplaced)
    (uuid 1898977d-6d85-49b1-9e8e-68d30e025afd)
    (property "Reference" "#PWR0101" (at 208.28 140.97 0)
      (effects (font (size 1.27 1.27)) hide)
    )
    (property "Value" "GND" (at 208.28 139.7 0)
      (effects (font (size 1.27 1.27)))
    )
    (property "Footprint" "" (at 208.28 134.62 0)
      (effects (font (size 1.27 1.27)) hide)
    )
    (property "Datasheet" "" (at 208.28 134.62 0)
      (effects (font (size 1.27 1.27)) hide)
    )
    (pin "1" (uuid 7ee4925f-1591-444b-9726-1b711549d260))
    (instances
      (project "Si473x-i2s-module"
        (path "/ce629a0e-7f11-4f3a-82d1-a509c49399fe"
          (reference "#PWR0101") (unit 1)
        )
      )
    )
  )

  (symbol (lib_id "Device:C") (at 120.65 93.98 90) (unit 1)
    (in_bom yes) (on_board yes) (dnp no) (fields_autoplaced)
    (uuid 194c4ac8-6896-4ff1-a728-8049578b3d0b)
    (property "Reference" "C2" (at 120.65 86.36 90)
      (effects (font (size 1.27 1.27)))
    )
    (property "Value" "1nF" (at 120.65 88.9 90)
      (effects (font (size 1.27 1.27)))
    )
    (property "Footprint" "Capacitor_SMD:C_0603_1608Metric" (at 124.46 93.0148 0)
      (effects (font (size 1.27 1.27)) hide)
    )
    (property "Datasheet" "~" (at 120.65 93.98 0)
      (effects (font (size 1.27 1.27)) hide)
    )
    (property "MFR. Part #" "CL10B102KB8NNNC" (at 120.65 93.98 90)
      (effects (font (size 1.27 1.27)) hide)
    )
    (property "LCSC" "C1588" (at 120.65 93.98 90)
      (effects (font (size 1.27 1.27)) hide)
    )
    (pin "1" (uuid 8a3e4da9-34f1-4d5c-a0b3-3656f65fce83))
    (pin "2" (uuid 8fdc57be-27da-419c-96f3-3deb847ff0ca))
    (instances
      (project "Si473x-i2s-module"
        (path "/ce629a0e-7f11-4f3a-82d1-a509c49399fe"
          (reference "C2") (unit 1)
        )
      )
    )
  )

  (symbol (lib_id "_project:conn_castellated_5_4_5_4") (at 144.78 129.54 0) (unit 2)
    (in_bom no) (on_board yes) (dnp no) (fields_autoplaced)
    (uuid 1edda549-27ed-4954-a3f3-4d74e7e273d5)
    (property "Reference" "J1" (at 146.05 160.02 0)
      (effects (font (size 1.27 1.27)))
    )
    (property "Value" "conn_castellated_5_4_5_4" (at 146.05 162.56 0)
      (effects (font (size 1.27 1.27)))
    )
    (property "Footprint" "_project:conn_castellated_5_4_5_3" (at 109.22 152.4 0)
      (effects (font (size 1.27 1.27)) hide)
    )
    (property "Datasheet" "" (at 109.22 152.4 0)
      (effects (font (size 1.27 1.27)) hide)
    )
    (pin "1" (uuid 7877ef9c-40a0-423f-b553-863416d5cae5))
    (pin "2" (uuid 99ab98d2-672c-4b94-a54c-23ecec87544d))
    (pin "3" (uuid 94ecdd41-79ec-4c53-8da4-ed8e60cbdd91))
    (pin "4" (uuid 6a3649dc-34d8-4b24-9e77-def3f6e9a79b))
    (pin "5" (uuid 7474eaf9-f1c6-4b40-8fbe-e28a1dc397d5))
    (pin "6" (uuid cdd6cb70-e2b7-4bb7-89b0-e400aa5b9263))
    (pin "7" (uuid 23ec743e-af3f-44fa-9919-0f51fd08f703))
    (pin "8" (uuid 34209dba-3808-403d-92b9-dcfaa687936d))
    (pin "9" (uuid b44ecf20-2bf3-405d-8985-edf79b6bd346))
    (pin "10" (uuid 1bca8533-b247-4553-8a94-20bb797fa134))
    (pin "11" (uuid b42a96a5-05ba-449c-a7d3-fef4309be855))
    (pin "12" (uuid fcbfbaeb-55af-4174-aa70-9133e83cc0ed))
    (pin "13" (uuid 2cb38804-e107-4f17-9021-8d88ca37d4a1))
    (pin "14" (uuid db05eda7-413d-43b3-98e7-65d812be5afa))
    (pin "15" (uuid 51eebe9e-32fe-4bb9-9e7c-4ce7f777be8f))
    (pin "16" (uuid d7ad32cb-f210-48e3-baf9-ae67a3ceb7a5))
    (pin "17" (uuid 6ace8b53-b64f-4f0d-9d8f-f66bad8a7e0b))
    (pin "18" (uuid 8097a018-fe4a-4944-b8f7-701541af6574))
    (instances
      (project "Si473x-i2s-module"
        (path "/ce629a0e-7f11-4f3a-82d1-a509c49399fe"
          (reference "J1") (unit 2)
        )
      )
    )
  )

  (symbol (lib_id "_project:conn_castellated_5_4_5_4") (at 147.32 50.8 0) (unit 4)
    (in_bom no) (on_board yes) (dnp no) (fields_autoplaced)
    (uuid 1f044c45-c606-4baf-a667-f2f230225b83)
    (property "Reference" "J1" (at 146.05 19.05 0)
      (effects (font (size 1.27 1.27)))
    )
    (property "Value" "conn_castellated_5_4_5_4" (at 146.05 21.59 0)
      (effects (font (size 1.27 1.27)))
    )
    (property "Footprint" "_project:conn_castellated_5_4_5_3" (at 111.76 73.66 0)
      (effects (font (size 1.27 1.27)) hide)
    )
    (property "Datasheet" "" (at 111.76 73.66 0)
      (effects (font (size 1.27 1.27)) hide)
    )
    (pin "1" (uuid fa0e1707-0456-4abd-8e71-f0a81952ad9b))
    (pin "2" (uuid fdf3ed05-2935-4fc8-830d-e1020d301321))
    (pin "3" (uuid d9a55c09-a6ec-4f31-80ca-89cfd172e816))
    (pin "4" (uuid f2b6002d-0806-415d-8657-38f0f3d6a29b))
    (pin "5" (uuid 7bc5989c-ca3d-4450-9297-83623213dd01))
    (pin "6" (uuid 2b71a0bb-1eda-4391-bace-e1dbcf4ed0ae))
    (pin "7" (uuid 9e5773ab-6f5c-4e49-a6c9-5bebc26c5021))
    (pin "8" (uuid 37265b5a-1b8a-4669-bcfc-5e6b0cc8b84e))
    (pin "9" (uuid 0e4df953-edef-4c03-9b33-90bfb61ac407))
    (pin "10" (uuid 23e6eae7-09db-4e68-a596-342f1b185f1c))
    (pin "11" (uuid bcad7a64-4641-4569-b5d2-b5eedc5af64b))
    (pin "12" (uuid e7318708-1662-492f-b523-8715ebc16b78))
    (pin "13" (uuid f5f5dd3b-e320-48f9-ae42-bb73c5cbe4d4))
    (pin "14" (uuid 21372314-8881-49ca-a70b-f628c52c28b2))
    (pin "15" (uuid d5f74c35-8f59-44b0-a5c7-713ee255d11e))
    (pin "16" (uuid a04e350e-94d9-47a4-b0b9-9c5c7d8f0445))
    (pin "17" (uuid ae767fc9-7402-4c60-ba0f-c199f8094084))
    (pin "18" (uuid c84ab6d5-ea5f-46ae-973e-25472dea5f9f))
    (instances
      (project "Si473x-i2s-module"
        (path "/ce629a0e-7f11-4f3a-82d1-a509c49399fe"
          (reference "J1") (unit 4)
        )
      )
    )
  )

  (symbol (lib_id "power:GND") (at 167.64 134.62 0) (unit 1)
    (in_bom yes) (on_board yes) (dnp no) (fields_autoplaced)
    (uuid 40b42e78-84ef-4927-bcd1-8adeb7d7e681)
    (property "Reference" "#PWR0107" (at 167.64 140.97 0)
      (effects (font (size 1.27 1.27)) hide)
    )
    (property "Value" "GND" (at 167.64 139.7 0)
      (effects (font (size 1.27 1.27)))
    )
    (property "Footprint" "" (at 167.64 134.62 0)
      (effects (font (size 1.27 1.27)) hide)
    )
    (property "Datasheet" "" (at 167.64 134.62 0)
      (effects (font (size 1.27 1.27)) hide)
    )
    (pin "1" (uuid e76c2336-070e-4b54-ac07-5b37afcbea20))
    (instances
      (project "Si473x-i2s-module"
        (path "/ce629a0e-7f11-4f3a-82d1-a509c49399fe"
          (reference "#PWR0107") (unit 1)
        )
      )
    )
  )

  (symbol (lib_id "power:GND") (at 187.96 134.62 0) (unit 1)
    (in_bom yes) (on_board yes) (dnp no) (fields_autoplaced)
    (uuid 43b39d0f-aea8-4a45-93ef-07f5f04576de)
    (property "Reference" "#PWR0106" (at 187.96 140.97 0)
      (effects (font (size 1.27 1.27)) hide)
    )
    (property "Value" "GND" (at 187.96 139.7 0)
      (effects (font (size 1.27 1.27)))
    )
    (property "Footprint" "" (at 187.96 134.62 0)
      (effects (font (size 1.27 1.27)) hide)
    )
    (property "Datasheet" "" (at 187.96 134.62 0)
      (effects (font (size 1.27 1.27)) hide)
    )
    (pin "1" (uuid d4259f73-6755-4dcf-96bf-eed5c0f26bba))
    (instances
      (project "Si473x-i2s-module"
        (path "/ce629a0e-7f11-4f3a-82d1-a509c49399fe"
          (reference "#PWR0106") (unit 1)
        )
      )
    )
  )

  (symbol (lib_id "power:GND") (at 233.68 106.68 0) (unit 1)
    (in_bom yes) (on_board yes) (dnp no) (fields_autoplaced)
    (uuid 546ada6e-783c-4780-a4ff-c2e2959afd61)
    (property "Reference" "#PWR0109" (at 233.68 113.03 0)
      (effects (font (size 1.27 1.27)) hide)
    )
    (property "Value" "GND" (at 233.68 111.76 0)
      (effects (font (size 1.27 1.27)))
    )
    (property "Footprint" "" (at 233.68 106.68 0)
      (effects (font (size 1.27 1.27)) hide)
    )
    (property "Datasheet" "" (at 233.68 106.68 0)
      (effects (font (size 1.27 1.27)) hide)
    )
    (pin "1" (uuid e2884cc5-4303-404a-95c2-a4918f2ba53b))
    (instances
      (project "Si473x-i2s-module"
        (path "/ce629a0e-7f11-4f3a-82d1-a509c49399fe"
          (reference "#PWR0109") (unit 1)
        )
      )
    )
  )

  (symbol (lib_id "Device:C") (at 187.96 130.81 0) (unit 1)
    (in_bom yes) (on_board yes) (dnp no) (fields_autoplaced)
    (uuid 5996fbb8-2a5e-46cd-ae2b-5aa6c2e9d968)
    (property "Reference" "C1" (at 191.77 129.5399 0)
      (effects (font (size 1.27 1.27)) (justify left))
    )
    (property "Value" "100nF" (at 191.77 132.0799 0)
      (effects (font (size 1.27 1.27)) (justify left))
    )
    (property "Footprint" "Capacitor_SMD:C_0603_1608Metric" (at 188.9252 134.62 0)
      (effects (font (size 1.27 1.27)) hide)
    )
    (property "Datasheet" "~" (at 187.96 130.81 0)
      (effects (font (size 1.27 1.27)) hide)
    )
    (property "MFR. Part #" "CC0603KRX7R9BB104" (at 187.96 130.81 0)
      (effects (font (size 1.27 1.27)) hide)
    )
    (property "LCSC" "C14663" (at 187.96 130.81 0)
      (effects (font (size 1.27 1.27)) hide)
    )
    (pin "1" (uuid 70ceb285-8b0e-4da4-988a-e03d3f1b10b1))
    (pin "2" (uuid 0c8dd35b-4778-4805-a93e-2d9fbc3d59b7))
    (instances
      (project "Si473x-i2s-module"
        (path "/ce629a0e-7f11-4f3a-82d1-a509c49399fe"
          (reference "C1") (unit 1)
        )
      )
    )
  )

  (symbol (lib_id "power:GND") (at 127 66.04 0) (unit 1)
    (in_bom yes) (on_board yes) (dnp no) (fields_autoplaced)
    (uuid 5e8fb7c2-f329-4cc2-b7a4-14b03a312cfd)
    (property "Reference" "#PWR0103" (at 127 72.39 0)
      (effects (font (size 1.27 1.27)) hide)
    )
    (property "Value" "GND" (at 127 71.12 0)
      (effects (font (size 1.27 1.27)))
    )
    (property "Footprint" "" (at 127 66.04 0)
      (effects (font (size 1.27 1.27)) hide)
    )
    (property "Datasheet" "" (at 127 66.04 0)
      (effects (font (size 1.27 1.27)) hide)
    )
    (pin "1" (uuid de8d01ea-31b6-4f4f-8a5f-1a09c57bfccc))
    (instances
      (project "Si473x-i2s-module"
        (path "/ce629a0e-7f11-4f3a-82d1-a509c49399fe"
          (reference "#PWR0103") (unit 1)
        )
      )
    )
  )

  (symbol (lib_id "Mechanical:MountingHole") (at 101.6 33.02 0) (unit 1)
    (in_bom yes) (on_board yes) (dnp no) (fields_autoplaced)
    (uuid 687ea70f-14dd-4012-92ae-d9db2383642e)
    (property "Reference" "H2" (at 104.14 32.385 0)
      (effects (font (size 1.27 1.27)) (justify left))
    )
    (property "Value" "Tooling hole" (at 104.14 34.925 0)
      (effects (font (size 1.27 1.27)) (justify left))
    )
    (property "Footprint" "_project:tooling-hole" (at 101.6 33.02 0)
      (effects (font (size 1.27 1.27)) hide)
    )
    (property "Datasheet" "~" (at 101.6 33.02 0)
      (effects (font (size 1.27 1.27)) hide)
    )
    (instances
      (project "Si473x-i2s-module"
        (path "/ce629a0e-7f11-4f3a-82d1-a509c49399fe"
          (reference "H2") (unit 1)
        )
      )
    )
  )

  (symbol (lib_id "power:GND") (at 121.92 147.32 0) (unit 1)
    (in_bom yes) (on_board yes) (dnp no) (fields_autoplaced)
    (uuid 7578df23-ce6e-48af-a6c9-eed71f9d0b8f)
    (property "Reference" "#PWR0102" (at 121.92 153.67 0)
      (effects (font (size 1.27 1.27)) hide)
    )
    (property "Value" "GND" (at 121.92 152.4 0)
      (effects (font (size 1.27 1.27)))
    )
    (property "Footprint" "" (at 121.92 147.32 0)
      (effects (font (size 1.27 1.27)) hide)
    )
    (property "Datasheet" "" (at 121.92 147.32 0)
      (effects (font (size 1.27 1.27)) hide)
    )
    (pin "1" (uuid 42b24977-a284-4e7a-89a8-2d2d5b5ececf))
    (instances
      (project "Si473x-i2s-module"
        (path "/ce629a0e-7f11-4f3a-82d1-a509c49399fe"
          (reference "#PWR0102") (unit 1)
        )
      )
    )
  )

  (symbol (lib_id "Device:C") (at 163.83 66.04 270) (unit 1)
    (in_bom yes) (on_board yes) (dnp no) (fields_autoplaced)
    (uuid 85331ac1-77b3-43e3-bd4d-139327324c81)
    (property "Reference" "C9" (at 163.83 58.42 90)
      (effects (font (size 1.27 1.27)))
    )
    (property "Value" "3pF" (at 163.83 60.96 90)
      (effects (font (size 1.27 1.27)))
    )
    (property "Footprint" "Capacitor_SMD:C_0603_1608Metric" (at 160.02 67.0052 0)
      (effects (font (size 1.27 1.27)) hide)
    )
    (property "Datasheet" "~" (at 163.83 66.04 0)
      (effects (font (size 1.27 1.27)) hide)
    )
    (property "MFR. Part #" "0603CG3R0C500NT" (at 163.83 66.04 90)
      (effects (font (size 1.27 1.27)) hide)
    )
    (property "LCSC" "C46219" (at 163.83 66.04 90)
      (effects (font (size 1.27 1.27)) hide)
    )
    (pin "1" (uuid 89fa396c-33d0-4382-91a8-8fbed67afd45))
    (pin "2" (uuid 01f330d6-b640-4a1d-9587-89ccc3cb8907))
    (instances
      (project "Si473x-i2s-module"
        (path "/ce629a0e-7f11-4f3a-82d1-a509c49399fe"
          (reference "C9") (unit 1)
        )
      )
    )
  )

  (symbol (lib_id "_project:conn_castellated_5_4_5_4") (at 213.36 99.06 0) (unit 3)
    (in_bom no) (on_board yes) (dnp no) (fields_autoplaced)
    (uuid acfcb2c8-1608-4357-9472-4347d5986259)
    (property "Reference" "J1" (at 242.57 98.425 0)
      (effects (font (size 1.27 1.27)) (justify left))
    )
    (property "Value" "conn_castellated_5_4_5_4" (at 242.57 100.965 0)
      (effects (font (size 1.27 1.27)) (justify left))
    )
    (property "Footprint" "_project:conn_castellated_5_4_5_3" (at 177.8 121.92 0)
      (effects (font (size 1.27 1.27)) hide)
    )
    (property "Datasheet" "" (at 177.8 121.92 0)
      (effects (font (size 1.27 1.27)) hide)
    )
    (pin "1" (uuid 997ab2aa-ff6b-41e4-a20e-8b0f6c2658c9))
    (pin "2" (uuid 8b31c804-69f5-4ac6-9ae8-139594dfb13b))
    (pin "3" (uuid f8226a55-eb54-492d-8068-68cb8cbb6f1f))
    (pin "4" (uuid 3e187ad2-fefb-4831-ac62-d08271d79361))
    (pin "5" (uuid e8d64eac-b219-4934-b2fa-c03e4772fcb2))
    (pin "6" (uuid 83815328-dbf8-4d80-a07e-6e838424c7f3))
    (pin "7" (uuid 8ba044f2-3c08-4ff8-9b34-923454dcb985))
    (pin "8" (uuid 5315ea76-2420-4b97-8e2d-8a3a5dfdbb0f))
    (pin "9" (uuid 2f1ba3b2-0924-4132-bdb0-3b8b728eb4e7))
    (pin "10" (uuid 815d28c4-369b-47f0-b552-ec265daeccd0))
    (pin "11" (uuid f3595b93-0a22-485a-9981-61a615dacaf4))
    (pin "12" (uuid 503bca73-af3b-4b10-bdf2-e2ae0606df10))
    (pin "13" (uuid 0fa737cd-8e91-4c6c-a841-90b73ff78ad2))
    (pin "14" (uuid 88bd57cd-9e6d-48cb-b1c2-27571a5e844b))
    (pin "15" (uuid 9da2c0c0-f664-4a18-a2c3-939e74fc8019))
    (pin "16" (uuid 8112f2ab-8e56-46f1-aa39-8626363e9b03))
    (pin "17" (uuid 69373c8e-afa3-48ce-a2e2-d5acf38d62ea))
    (pin "18" (uuid 7da87a83-ac0a-4459-9a9a-307a8221d8cd))
    (instances
      (project "Si473x-i2s-module"
        (path "/ce629a0e-7f11-4f3a-82d1-a509c49399fe"
          (reference "J1") (unit 3)
        )
      )
    )
  )

  (symbol (lib_id "_project:Si473x-D60-GM") (at 147.32 99.06 0) (unit 1)
    (in_bom yes) (on_board yes) (dnp no)
    (uuid b3c8f11d-01c3-443c-bc2c-dcf9dae7e887)
    (property "Reference" "U1" (at 127 58.42 0)
      (effects (font (size 1.27 1.27)) (justify left))
    )
    (property "Value" "Si473x-D60-GMR" (at 127 55.88 0)
      (effects (font (size 1.27 1.27)) (justify left))
    )
    (property "Footprint" "_project:Si473x-D60-GM" (at 127 60.96 0)
      (effects (font (size 1.27 1.27)) (justify left) hide)
    )
    (property "Datasheet" "http://www.silabs.com/Support Documents/TechnicalDocs/Si4730-31-34-35-D60.pdf" (at 127 58.42 0)
      (effects (font (size 1.27 1.27)) (justify left) hide)
    )
    (property "MFR. Part #" "Si473x-D60-GM-ND" (at 147.32 99.06 0)
      (effects (font (size 1.27 1.27)) hide)
    )
    (property "LCSC" "C5363643" (at 147.32 99.06 0)
      (effects (font (size 1.27 1.27)) hide)
    )
    (pin "1" (uuid 030a41ce-e9d5-4c3b-bff3-892bca658151))
    (pin "10" (uuid c14c5903-cac5-4025-bdf5-ff8c5a186e1b))
    (pin "11" (uuid bc5d5016-4b08-477d-8588-37c066a90a78))
    (pin "12" (uuid af60391a-b6df-4124-9c6d-ce1677a48712))
    (pin "13" (uuid 992580df-169e-486d-aa3b-dc33504ee4d4))
    (pin "14" (uuid b5ae1deb-6920-4c1d-967b-dcc64665eb5e))
    (pin "15" (uuid a3f2fadf-ca4f-4018-a1de-07f66440940b))
    (pin "16" (uuid 65e531d5-9668-406c-baa8-29a659e5755c))
    (pin "17" (uuid 3e1846fc-e74d-410e-b2b1-43d62afe9fbe))
    (pin "18" (uuid 81c1eeca-31b5-448c-865b-75903c0ff272))
    (pin "19" (uuid 2e2eb394-fe62-4240-8876-c0e7fb47942e))
    (pin "2" (uuid 90371737-6638-456b-81f6-0bd195939989))
    (pin "20" (uuid f00e8dbd-ad04-46de-a45b-4d94590b2fd5))
    (pin "21" (uuid 7889cccd-91eb-4adb-98bf-52cbd75c7472))
    (pin "3" (uuid d4ce6157-359d-4543-a6c4-b97af28f02db))
    (pin "4" (uuid d0dcca77-f118-4def-9b5d-cab29f032197))
    (pin "5" (uuid 24b62961-a7d1-4611-8b53-d3a1e6d08d68))
    (pin "6" (uuid 0da54173-4550-439c-877f-5a5939b80b37))
    (pin "7" (uuid 9d8bf1e9-c1a1-4844-b7c8-abb44145d84c))
    (pin "8" (uuid b80a1313-ffc0-4537-b7f3-20fba85968c1))
    (pin "9" (uuid c5260e17-2873-48fd-9f61-a77eb19690cb))
    (instances
      (project "Si473x-i2s-module"
        (path "/ce629a0e-7f11-4f3a-82d1-a509c49399fe"
          (reference "U1") (unit 1)
        )
      )
    )
  )

  (symbol (lib_id "Device:R") (at 173.99 88.9 90) (unit 1)
    (in_bom yes) (on_board yes) (dnp no)
    (uuid dda5895f-94f8-4505-93ea-b7d0d99a700d)
    (property "Reference" "R1" (at 173.99 86.36 90)
      (effects (font (size 1.27 1.27)))
    )
    (property "Value" "620" (at 173.99 88.9 90)
      (effects (font (size 1.27 1.27)))
    )
    (property "Footprint" "Resistor_SMD:R_0603_1608Metric" (at 173.99 90.678 90)
      (effects (font (size 1.27 1.27)) hide)
    )
    (property "Datasheet" "~" (at 173.99 88.9 0)
      (effects (font (size 1.27 1.27)) hide)
    )
    (property "MFR. Part #" "0603WAF6200T5E" (at 173.99 88.9 90)
      (effects (font (size 1.27 1.27)) hide)
    )
    (property "LCSC" "C23220" (at 173.99 88.9 90)
      (effects (font (size 1.27 1.27)) hide)
    )
    (pin "1" (uuid 0b3b8bf5-8ee6-4a39-a097-7f63017a4978))
    (pin "2" (uuid 1c46978d-1922-45bb-9aec-8236a3bbef5a))
    (instances
      (project "Si473x-i2s-module"
        (path "/ce629a0e-7f11-4f3a-82d1-a509c49399fe"
          (reference "R1") (unit 1)
        )
      )
    )
  )

  (symbol (lib_id "Oscillator:SG-3030CM") (at 121.92 139.7 0) (unit 1)
    (in_bom yes) (on_board yes) (dnp no) (fields_autoplaced)
    (uuid e3dffc33-838a-4b0e-9fdc-360da518e8d5)
    (property "Reference" "X1" (at 115.57 138.4299 0)
      (effects (font (size 1.27 1.27)) (justify right))
    )
    (property "Value" "SG-3031CM 32.768K" (at 115.57 140.9699 0)
      (effects (font (size 1.27 1.27)) (justify right))
    )
    (property "Footprint" "_project:3215 4-SMD" (at 121.92 148.59 0)
      (effects (font (size 1.27 1.27)) hide)
    )
    (property "Datasheet" "https://support.epson.biz/td/api/doc_check.php?mode=dl&lang=en&Parts=SG-3030CM" (at 119.38 139.7 0)
      (effects (font (size 1.27 1.27)) hide)
    )
    (property "MFR. Part #" "SG-3031CM 32.768K" (at 121.92 139.7 0)
      (effects (font (size 1.27 1.27)) hide)
    )
    (property "LCSC" "C2976104" (at 121.92 139.7 0)
      (effects (font (size 1.27 1.27)) hide)
    )
    (pin "1" (uuid d7f05d3b-0299-43de-982a-b3270b5458ec))
    (pin "2" (uuid d18e3f03-2f3c-423d-94f8-2f1d5e16de8e))
    (pin "3" (uuid 7a331800-ef58-4d99-a8db-28e43a1190c8))
    (pin "4" (uuid 68e59bd7-7476-4d0f-bcf0-4d1cdde158d1))
    (instances
      (project "Si473x-i2s-module"
        (path "/ce629a0e-7f11-4f3a-82d1-a509c49399fe"
          (reference "X1") (unit 1)
        )
      )
    )
  )

  (symbol (lib_id "Device:R") (at 157.48 72.39 180) (unit 1)
    (in_bom yes) (on_board yes) (dnp no)
    (uuid eaedaf18-7392-4e85-81df-2fa444b2bf60)
    (property "Reference" "R2" (at 160.02 72.39 90)
      (effects (font (size 1.27 1.27)))
    )
    (property "Value" "2k" (at 157.48 72.39 90)
      (effects (font (size 1.27 1.27)))
    )
    (property "Footprint" "Resistor_SMD:R_0603_1608Metric" (at 159.258 72.39 90)
      (effects (font (size 1.27 1.27)) hide)
    )
    (property "Datasheet" "~" (at 157.48 72.39 0)
      (effects (font (size 1.27 1.27)) hide)
    )
    (property "MFR. Part #" "AC0603FR-072KL" (at 157.48 72.39 90)
      (effects (font (size 1.27 1.27)) hide)
    )
    (property "LCSC" "C125933" (at 157.48 72.39 90)
      (effects (font (size 1.27 1.27)) hide)
    )
    (pin "1" (uuid b8554f4a-d496-4ac1-83ca-231d85059921))
    (pin "2" (uuid 67ed44ed-2e2a-44cf-975e-b20b27854bd2))
    (instances
      (project "Si473x-i2s-module"
        (path "/ce629a0e-7f11-4f3a-82d1-a509c49399fe"
          (reference "R2") (unit 1)
        )
      )
    )
  )

  (symbol (lib_id "Device:C") (at 167.64 130.81 0) (unit 1)
    (in_bom yes) (on_board yes) (dnp no) (fields_autoplaced)
    (uuid f52c1948-f434-400d-9f0c-b428447a53a5)
    (property "Reference" "C4" (at 171.45 129.5399 0)
      (effects (font (size 1.27 1.27)) (justify left))
    )
    (property "Value" "100nF" (at 171.45 132.0799 0)
      (effects (font (size 1.27 1.27)) (justify left))
    )
    (property "Footprint" "Capacitor_SMD:C_0603_1608Metric" (at 168.6052 134.62 0)
      (effects (font (size 1.27 1.27)) hide)
    )
    (property "Datasheet" "~" (at 167.64 130.81 0)
      (effects (font (size 1.27 1.27)) hide)
    )
    (property "MFR. Part #" "CC0603KRX7R9BB104" (at 167.64 130.81 0)
      (effects (font (size 1.27 1.27)) hide)
    )
    (property "LCSC" "C14663" (at 167.64 130.81 0)
      (effects (font (size 1.27 1.27)) hide)
    )
    (pin "1" (uuid 5d434be4-ce0f-4b7d-904a-a26099cde788))
    (pin "2" (uuid 90b9a1b5-29f0-408b-87c5-fa6f1e0193a0))
    (instances
      (project "Si473x-i2s-module"
        (path "/ce629a0e-7f11-4f3a-82d1-a509c49399fe"
          (reference "C4") (unit 1)
        )
      )
    )
  )

  (symbol (lib_id "power:GND") (at 167.64 66.04 0) (unit 1)
    (in_bom yes) (on_board yes) (dnp no) (fields_autoplaced)
    (uuid f8b5efec-60cf-4d5b-8589-a80b52b1d189)
    (property "Reference" "#PWR0108" (at 167.64 72.39 0)
      (effects (font (size 1.27 1.27)) hide)
    )
    (property "Value" "GND" (at 167.64 71.12 0)
      (effects (font (size 1.27 1.27)))
    )
    (property "Footprint" "" (at 167.64 66.04 0)
      (effects (font (size 1.27 1.27)) hide)
    )
    (property "Datasheet" "" (at 167.64 66.04 0)
      (effects (font (size 1.27 1.27)) hide)
    )
    (pin "1" (uuid 74b5352b-2742-4e92-a1af-ced377d20fd2))
    (instances
      (project "Si473x-i2s-module"
        (path "/ce629a0e-7f11-4f3a-82d1-a509c49399fe"
          (reference "#PWR0108") (unit 1)
        )
      )
    )
  )

  (symbol (lib_id "Device:R") (at 152.4 72.39 180) (unit 1)
    (in_bom yes) (on_board yes) (dnp no)
    (uuid fb9f0634-4d3c-4dbb-9939-1591fdeab3b0)
    (property "Reference" "R3" (at 154.94 72.39 90)
      (effects (font (size 1.27 1.27)))
    )
    (property "Value" "2k" (at 152.4 72.39 90)
      (effects (font (size 1.27 1.27)))
    )
    (property "Footprint" "Resistor_SMD:R_0603_1608Metric" (at 154.178 72.39 90)
      (effects (font (size 1.27 1.27)) hide)
    )
    (property "Datasheet" "~" (at 152.4 72.39 0)
      (effects (font (size 1.27 1.27)) hide)
    )
    (property "MFR. Part #" "AC0603FR-072KL" (at 152.4 72.39 90)
      (effects (font (size 1.27 1.27)) hide)
    )
    (property "LCSC" "C125933" (at 152.4 72.39 90)
      (effects (font (size 1.27 1.27)) hide)
    )
    (pin "1" (uuid e04af906-dd72-46a7-9cc2-3283656337cd))
    (pin "2" (uuid cbde692c-4d8d-4d9b-ad01-cf541f26d688))
    (instances
      (project "Si473x-i2s-module"
        (path "/ce629a0e-7f11-4f3a-82d1-a509c49399fe"
          (reference "R3") (unit 1)
        )
      )
    )
  )

  (sheet_instances
    (path "/" (page "1"))
  )
)
